15123211
11
1163211
11
1512321112
14096321
2
1256321221024642
1
1
1256321221024642
47584096
2467407
27273163
25594453
261
1678710
1678198
810472
0
00616
00615
00297
00000
2454491
2454095
1185393
396
385
381
0
00002
00002
00002
00000
