15123211
11
1163211
11
1512321112
14096321
2
1256321221024642
1
1
1256321221024642
634532255
54786778
113998582
106811974
63496
7186608
7186096
2934173
0
00630
00630
00257
00000
54632413
54339985
2963021
292428
292412
184674
0
00054
00054
00034
00000
