11283211
11
1323211
11
1512321112
14096321
2
1256321221024642
1
1
1256321221024642
17620530
6812470
8629449
8056611
4
572838
572710
282444
0
00664
00664
00327
00000
1953008
1952980
352202
28
4
3
0
00000
00000
00000
00000
