11283211
11
1323211
11
1512321112
14096321
2
1256321221024642
1
1
1256321221024642
15188271
30523
4925304
4822178
12
103126
102998
2316
0
00209
00209
00005
00000
29743
29709
5976
34
12
10
0
00011
00004
00003
00000
