183241
11
15123211
11
1512321112
14096321
2
1256321221024642
1
1
1256321221024642
86233302
56276623
53046776
3229847
3229815
1272081
0
00574
00574
00226
00000
1216244
1216204
40
0
0
0
00000
00000
00000
00000
