1323241
11
183211
11
1512321112
14096321
2
1256321221024642
1
1
1256321221024642
42438386
33545035
36984235
36669254
314981
314853
39720
0
00085
00085
00011
00000
14384
14362
22
15
15
0
00015
00010
00010
00000
