1323241
11
183211
11
1512321112
14096321
2
1256321221024642
1
1
1256321221024642
13631117
5413430
5062107
5058452
3655
3527
1985
0
00007
00007
00004
00000
5275339
5275285
54
47
44
0
00000
00000
00000
00000
