1323241
11
1323211
11
1512321112
14096321
2
1256321221024642
1
1
1256321221024642
45313109
3453538
3453271
267
139
21
0
00001
00000
00000
00000
33636476
31208019
2428457
2428425
237245
0
00722
00722
00071
00000
