1323241
11
1323211
11
1512321112
14096321
2
1256321221024642
1
1
1256321221024642
592075428
80507664
79807641
700023
699895
203384
0
00087
00087
00025
00000
293679001
291387222
2291779
2291747
2129916
0
00078
00078
00073
00000
