1323241
11
1323211
11
1512321112
14096321
2
1256321221024642
1
1
1256321221024642
88396260
24536850
22887924
1648926
1648798
293642
0
00672
00672
00120
00000
33211225
32097882
1113343
1113311
414262
0
00335
00335
00125
00000
