1323241
11
1323211
11
1512321112
14096321
2
1256321221024642
1
1
1256321221024642
6239239
3680197
899005
870672
28333
28205
17444
0
00315
00314
00194
00000
3594418
3587244
7174
7142
7072
0
00020
00020
00020
00000
