183241
11
11283211
11
1512321112
14096321
2
1256321221024642
1
1
1256321221024642
39458878
2598607
2232424
366183
366151
43603
0
01409
01409
00168
00000
19271808
19262033
9775
9647
8785
0
00005
00005
00005
00000
