183241
11
11283211
11
1512321112
14096321
2
1256321221024642
1
1
1256321221024642
20350836
14960014
13700699
1259315
1259283
655604
0
00842
00842
00438
00000
5121487
4532041
589446
589318
584806
0
01151
01151
01142
00000
