1323241
11
183211
11
1512321112
14096321
2
1256321221024642
1
1
1256321221024642
590977960
293615136
161175159
160113522
1061637
1061509
502118
0
00066
00066
00031
00000
238970167
225217575
13752592
13752584
12271196
0
00575
00575
00514
00000
