1323241
11
183211
11
1512321112
14096321
2
1256321221024642
1
1
1256321221024642
13063341
3508697
1870972
1855825
15147
15019
4531
0
00081
00080
00024
00000
3183748
3179122
4626
4618
3932
0
00015
00015
00012
00000
