1323241
11
183211
11
1512321112
14096321
2
1256321221024642
1
1
1256321221024642
88166949
33211570
34414918
31772602
2642316
2642188
608842
0
00768
00768
00177
00000
23638859
23469835
169024
169016
136060
0
00072
00071
00058
00000
