1323241
11
183211
11
1512321112
14096321
2
1256321221024642
1
1
1256321221024642
32930236
22781701
15480868
14289124
1191744
1191616
830898
0
00770
00770
00537
00000
9410427
9239022
171405
171397
169570
0
00182
00182
00180
00000
