1323241
11
183211
11
1512321112
14096321
2
1256321221024642
1
1
1256321221024642
20342742
5121451
19514894
17678412
1836482
1836354
1228446
0
00941
00941
00629
00000
571189
568099
3090
3082
1575
0
00054
00054
00028
00000
