1323241
11
183211
11
1512321112
14096321
2
1256321221024642
1
1
1256321221024642
153281902
26489200
62279563
61568165
711398
711270
530415
0
00114
00114
00085
00000
26479275
26478312
963
955
896
0
00000
00000
00000
00000
