1323241
11
11283211
11
1512321112
14096321
2
1256321221024642
1
1
1256321221024642
162563155
5565022
5535114
0
29908
29780
12971
0
00054
00054
00023
00000
35717597
35602119
3077976
115478
115431
113442
0
00032
00032
00032
00000
