1323241
11
11283211
11
1512321112
14096321
2
1256321221024642
1
1
1256321221024642
649301623
113821897
99465328
0
14356569
14356441
5865945
0
01261
01261
00515
00000
54863299
54863241
2960744
58
0
0
0
00000
00000
00000
00000
