1323241
11
11283211
11
1512321112
14096321
2
1256321221024642
1
1
1256321221024642
31330946
7693452
7153618
0
539834
539706
161663
0
00702
00702
00210
00000
3744265
3740841
881338
3424
3296
3200
0
00009
00009
00009
00000
