1323241
11
1163211
11
1512321112
14096321
2
1256321221024642
1
1
1256321221024642
162569788
35711585
29392903
29158316
266999
234587
234459
96588
0
00080
00080
00033
00000
12311956
12134907
2901901
177049
177035
176973
0
00144
00144
00144
00000
