11283241
11
1323211
11
1512321112
14096321
2
1256321221024642
1
1
1256321221024642
30407441
3736441
7624442
7497553
0
126889
126377
63600
0
00166
00166
00083
00000
3736441
3717440
881035
19001
18988
12022
0
00051
00051
00032
00000
