1323241
11
1163211
11
1512321112
14096321
2
1256321221024642
1
1
1256321221024642
42255569
33550711
9525937
9267836
258101
257973
29896
0
00271
00271
00031
00000
27478356
27478327
29
14
10
0
00000
00000
00000
00000
