1323241
11
1163211
11
1512321112
14096321
2
1256321221024642
1
1
1256321221024642
13062889
3508736
1838299
1823174
15125
14997
4475
0
00082
00082
00024
00000
3216449
3212835
3614
3599
3067
0
00011
00011
00010
00000
