1323241
11
1163211
11
1512321112
14096321
2
1256321221024642
1
1
1256321221024642
38253856
10290939
26467556
26321846
145710
145582
46538
0
00055
00055
00018
00000
7618621
7618504
117
102
99
0
00000
00000
00000
00000
