11283241
11
1643211
11
1512321112
14096321
2
1256321221024642
1
1
1256321221024642
8854038
1988623
4278601
4244499
12925
34102
33590
9322
0
00080
00079
00022
00000
1860532
1860319
417823
213
213
0
0
00001
00001
00000
00000
