1323241
11
1163211
11
1512321112
14096321
2
1256321221024642
1
1
1256321221024642
48602291
2467368
27300178
25227226
0
2072952
2072824
762957
0
00759
00759
00279
00000
2467368
2466569
1187167
799
789
657
0
00003
00003
00003
00000
