11283221
11
1643211
11
1512321112
14096321
2
1256321221024642
1
1
1256321221024642
30917138
3743440
7720771
7363415
841
357356
357100
124768
0
00463
00463
00162
00000
3694575
3689263
881954
5312
5248
4895
0
00014
00014
00013
00000
