1643221
11
1323211
11
1512321112
14096321
2
1256321221024642
1
1
1256321221024642
215884759
53444154
133352851
132864971
7
487880
487752
19929
0
00037
00037
00001
00000
53443848
53443832
65134
16
0
0
0
00000
00000
00000
00000
