1323241
11
1163211
11
1512321112
14096321
2
1256321221024642
1
1
1256321221024642
20246484
3769970
3749555
0
20415
20287
10430
0
00054
00054
00028
00000
6804686
4121335
313385
2683351
2683335
140289
0
03943
03943
00206
00000
