11283211
11
1323211
11
1512321112
14096321
2
1256321221024642
1
1
1256321221024642
49688005
27292869
24745334
0
2547535
2547407
1028820
0
00933
00933
00377
00000
2454557
2454557
1180266
0
0
0
0
00000
00000
00000
00000
