11283221
11
1323211
11
1512321112
14096321
2
1256321221024642
1
1
1256321221024642
307158710
49139485
46621426
0
2518059
2517803
415136
0
00512
00512
00084
00000
66484239
64853069
7133234
1631170
1631138
1181524
0
00245
00245
00178
00000
