15123211
11
1643211
11
1512321112
14096321
2
1256321221024642
1
1
1256321221024642
634297206
113366710
106215420
0
7151290
7150778
2908823
0
00631
00631
00257
00000
54786710
54786132
2963146
578
531
531
0
00000
00000
00000
00000
