11283221
11
1163211
11
1512321112
14096321
2
1256321221024642
1
1
1256321221024642
47887124
27289359
25513561
0
1775798
1775542
755123
0
00651
00651
00277
00000
2467368
2466566
1187117
802
791
659
0
00003
00003
00003
00000
