11283241
11
1163211
11
1512321112
14096321
2
1256321221024642
1
1
1256321221024642
46909952
2467407
27286124
25889367
654
1396757
1396245
730440
0
00512
00512
00268
00000
2454446
2454320
1187217
126
126
2
0
00001
00001
00000
00000
