1323241
11
11283211
11
1512321112
14096321
2
1256321221024642
1
1
1256321221024642
13630981
4923900
4920622
3278
3150
1709
0
00007
00006
00003
00000
5413408
5413178
230
102
75
0
00000
00000
00000
00000
