1643221
11
1323211
11
1512321112
14096321
2
1256321221024642
1
1
1256321221024642
215884759
53444154
133352883
132865001
13
487882
487754
19929
0
00037
00037
00001
00000
53443815
53443802
65129
13
0
0
0
00000
00000
00000
00000
