1323241
11
1323211
11
1512321112
14096321
2
1256321221024642
1
1
1256321221024642
18105783
3270
2402815
2402271
6
544
416
355
0
00002
00002
00001
00000
3130
3109
1475
21
0
0
0
00067
00000
00000
00000
