1323241
11
1323211
11
1512321112
14096321
2
1256321221024642
1
1
1256321221024642
9101345
1988580
4154496
4051399
13
103097
102969
13484
0
00248
00248
00032
00000
1905961
1905923
426436
38
8
6
0
00000
00000
00000
00000
