1323241
11
1323211
11
1512321112
14096321
2
1256321221024642
1
1
1256321221024642
308411574
66545054
57260228
52950667
38251
4309561
4309433
986046
0
00753
00753
00172
00000
58963471
58757495
7139542
205976
205944
194232
0
00035
00035
00033
00000
