11283221
11
1643211
11
1512321112
14096321
2
1256321221024642
1
1
1256321221024642
30969059
3743598
7941289
7553028
7834
388261
388005
135063
0
00489
00489
00170
00000
3502901
3502417
878905
484
483
290
0
00001
00001
00001
00000
