1323241
11
183211
11
1512321112
14096321
2
1256321221024642
1
1
1256321221024642
309049161
66565718
62347887
57506038
606939
4841849
4841721
1298145
0
00777
00777
00208
00000
58983555
55978645
7135210
3004910
3004902
2447000
0
00509
00509
00415
00000
