1323241
11
183211
11
1512321112
14096321
2
1256321221024642
1
1
1256321221024642
217703593
53444154
133352876
132501229
12
851647
851519
19928
0
00064
00064
00001
00000
53443848
53443822
65134
26
18
15
0
00000
00000
00000
00000
