15123211
11
1643211
11
1512321112
14096321
2
1256321221024642
1
1
1256321221024642
8908915
1988629
4153409
4103346
13
50063
49551
12471
0
00121
00119
00030
00000
1905785
1905747
426752
38
6
6
0
00000
00000
00000
00000
