1643221
11
1323211
11
1512321112
14096321
2
1256321221024642
1
1
1256321221024642
48740012
27299777
25164310
0
2135467
2135339
780672
0
00782
00782
00286
00000
2467406
2467375
1186942
31
9
8
0
00000
00000
00000
00000
