1643221
11
1323211
11
1512321112
14096321
2
1256321221024642
1
1
1256321221024642
31503247
7702033
7085544
0
616489
616361
192333
0
00800
00800
00250
00000
3747151
3725591
880212
21560
21528
17158
0
00058
00057
00046
00000
