1643221
11
1323211
11
1512321112
14096321
2
1256321221024642
1
1
1256321221024642
30169258
6463260
5464295
0
998965
998837
60732
0
01546
01545
00094
00000
5307521
5307480
353204
41
9
3
0
00000
00000
00000
00000
