1323211
11
1323211
11
1512321112
14096321
2
1256321221024642
1
1
1256321221024642
713895996
115509451
66930080
79
48579371
48579339
14221184
0
04206
04206
01231
00000
55290911
55290509
2964430
402
402
0
0
00000
00000
00000
00000
