11283221
11
1323211
11
1512321112
14096321
2
1256321221024642
1
1
1256321221024642
30920605
3743530
7837737
7477442
1422
360295
360039
126883
0
00460
00459
00162
00000
3582545
3574858
881888
7687
7655
7177
0
00021
00021
00020
00000
