1643211
11
1323211
11
1512321112
14096321
2
1256321221024642
1
1
1256321221024642
32423074
8091179
6933455
2225
1157724
1157660
422490
0
01431
01431
00522
00000
3382235
3382087
867089
148
147
41
0
00000
00000
00000
00000
