1323241
11
183211
11
1512321112
14096321
2
1256321221024642
1
1
1256321221024642
162570205
35711360
29790165
29548283
388829
241882
241754
98464
0
00081
00081
00033
00000
12311731
11977618
2901901
334113
334107
295511
0
00271
00271
00240
00000
