1323241
11
183211
11
1512321112
14096321
2
1256321221024642
1
1
1256321221024642
16145674
6812471
8773650
8600469
300
173181
173053
35170
0
00197
00197
00040
00000
1862659
1826761
348762
35898
35891
17950
0
00193
00193
00096
00000
