1323241
11
183211
11
1512321112
14096321
2
1256321221024642
1
1
1256321221024642
132731730
28372841
25004715
24260119
500538
744596
744468
327296
0
00298
00298
00131
00000
11997926
11526549
2489126
471377
471370
417355
0
00393
00393
00348
00000
