1323241
11
183211
11
1512321112
14096321
2
1256321221024642
1
1
1256321221024642
30873445
5307562
7712584
6236867
40226
1475717
1475589
78680
0
01913
01913
00102
00000
4121947
4079241
353106
42706
42699
21002
0
00104
00104
00051
00000
