1323241
11
183211
11
1512321112
14096321
2
1256321221024642
1
1
1256321221024642
14857816
30525
4925144
4921713
27
3431
3303
2141
0
00007
00007
00004
00000
29669
29635
5969
34
27
25
0
00011
00009
00008
00000
