11283221
11
1323211
11
1512321112
14096321
2
1256321221024642
1
1
1256321221024642
8895166
1988571
4070266
4025168
0
45098
44842
10162
0
00111
00110
00025
00000
1988571
1988569
426663
2
0
0
0
00000
00000
00000
00000
