11283221
11
1323211
11
1512321112
14096321
2
1256321221024642
1
1
1256321221024642
307167647
66484473
49139712
46622610
0
2517102
2516846
415063
0
00512
00512
00084
00000
66484473
64971083
7133850
1513390
1513387
1011485
0
00228
00228
00152
00000
