%!PS-Adobe-3.0 
%%Creator: MATLAB, The MathWorks, Inc. Version 8.2.0.701 (R2013b). Operating System: Linux 3.17.2-1-ARCH #1 SMP PREEMPT Thu Oct 30 20:49:39 CET 2014 x86_64.
%%Title: paper/pictures/full.eps
%%CreationDate: 11/08/2014  19:07:09
%%DocumentNeededFonts: Helvetica
%%DocumentProcessColors: Cyan Magenta Yellow Black
%%LanguageLevel: 2
%%Pages: (atend)
%%BoundingBox: (atend)
%%EndComments

%%BeginProlog
% MathWorks dictionary
/MathWorks 160 dict begin
% definition operators
/bdef {bind def} bind def
/ldef {load def} bind def
/xdef {exch def} bdef
/xstore {exch store} bdef
% operator abbreviations
/c  /clip ldef
/cc /concat ldef
/cp /closepath ldef
/gr /grestore ldef
/gs /gsave ldef
/mt /moveto ldef
/np /newpath ldef
/cm /currentmatrix ldef
/sm /setmatrix ldef
/rm /rmoveto ldef
/rl /rlineto ldef
/s {show newpath} bdef
/sc {setcmykcolor} bdef
/sr /setrgbcolor ldef
/sg /setgray ldef
/w /setlinewidth ldef
/j /setlinejoin ldef
/cap /setlinecap ldef
/rc {rectclip} bdef
/rf {rectfill} bdef
% page state control
/pgsv () def
/bpage {/pgsv save def} bdef
/epage {pgsv restore} bdef
/bplot /gsave ldef
/eplot {stroke grestore} bdef
% orientation switch
/portraitMode 0 def /landscapeMode 1 def /rotateMode 2 def
% coordinate system mappings
/dpi2point 0 def
% font control
/FontSize 0 def
/FMS {/FontSize xstore findfont [FontSize 0 0 FontSize neg 0 0]
  makefont setfont} bdef
/reencode {exch dup where {pop load} {pop StandardEncoding} ifelse
  exch dup 3 1 roll findfont dup length dict begin
  { 1 index /FID ne {def}{pop pop} ifelse } forall
  /Encoding exch def currentdict end definefont pop} bdef
/isroman {findfont /CharStrings get /Agrave known} bdef
/FMSR {3 1 roll 1 index dup isroman {reencode} {pop pop} ifelse
  exch FMS} bdef
/csm {1 dpi2point div -1 dpi2point div scale neg translate
 dup landscapeMode eq {pop -90 rotate}
  {rotateMode eq {90 rotate} if} ifelse} bdef
% line types: solid, dotted, dashed, dotdash
/SO { [] 0 setdash } bdef
/DO { [.5 dpi2point mul 4 dpi2point mul] 0 setdash } bdef
/DA { [6 dpi2point mul] 0 setdash } bdef
/DD { [.5 dpi2point mul 4 dpi2point mul 6 dpi2point mul 4
  dpi2point mul] 0 setdash } bdef
% macros for lines and objects
/L {lineto stroke} bdef
/MP {3 1 roll moveto 1 sub {rlineto} repeat} bdef
/AP {{rlineto} repeat} bdef
/PDlw -1 def
/W {/PDlw currentlinewidth def setlinewidth} def
/PP {closepath eofill} bdef
/DP {closepath stroke} bdef
/MR {4 -2 roll moveto dup  0 exch rlineto exch 0 rlineto
  neg 0 exch rlineto closepath} bdef
/FR {MR stroke} bdef
/PR {MR fill} bdef
/L1i {{currentfile picstr readhexstring pop} image} bdef
/tMatrix matrix def
/MakeOval {newpath tMatrix currentmatrix pop translate scale
0 0 1 0 360 arc tMatrix setmatrix} bdef
/FO {MakeOval stroke} bdef
/PO {MakeOval fill} bdef
/PD {currentlinewidth 2 div 0 360 arc fill
   PDlw -1 eq not {PDlw w /PDlw -1 def} if} def
/FA {newpath tMatrix currentmatrix pop translate scale
  0 0 1 5 -2 roll arc tMatrix setmatrix stroke} bdef
/PA {newpath tMatrix currentmatrix pop	translate 0 0 moveto scale
  0 0 1 5 -2 roll arc closepath tMatrix setmatrix fill} bdef
/FAn {newpath tMatrix currentmatrix pop translate scale
  0 0 1 5 -2 roll arcn tMatrix setmatrix stroke} bdef
/PAn {newpath tMatrix currentmatrix pop translate 0 0 moveto scale
  0 0 1 5 -2 roll arcn closepath tMatrix setmatrix fill} bdef
/vradius 0 def /hradius 0 def /lry 0 def
/lrx 0 def /uly 0 def /ulx 0 def /rad 0 def
/MRR {/vradius xdef /hradius xdef /lry xdef /lrx xdef /uly xdef
  /ulx xdef newpath tMatrix currentmatrix pop ulx hradius add uly
  vradius add translate hradius vradius scale 0 0 1 180 270 arc 
  tMatrix setmatrix lrx hradius sub uly vradius add translate
  hradius vradius scale 0 0 1 270 360 arc tMatrix setmatrix
  lrx hradius sub lry vradius sub translate hradius vradius scale
  0 0 1 0 90 arc tMatrix setmatrix ulx hradius add lry vradius sub
  translate hradius vradius scale 0 0 1 90 180 arc tMatrix setmatrix
  closepath} bdef
/FRR {MRR stroke } bdef
/PRR {MRR fill } bdef
/MlrRR {/lry xdef /lrx xdef /uly xdef /ulx xdef /rad lry uly sub 2 div def
  newpath tMatrix currentmatrix pop ulx rad add uly rad add translate
  rad rad scale 0 0 1 90 270 arc tMatrix setmatrix lrx rad sub lry rad
  sub translate rad rad scale 0 0 1 270 90 arc tMatrix setmatrix
  closepath} bdef
/FlrRR {MlrRR stroke } bdef
/PlrRR {MlrRR fill } bdef
/MtbRR {/lry xdef /lrx xdef /uly xdef /ulx xdef /rad lrx ulx sub 2 div def
  newpath tMatrix currentmatrix pop ulx rad add uly rad add translate
  rad rad scale 0 0 1 180 360 arc tMatrix setmatrix lrx rad sub lry rad
  sub translate rad rad scale 0 0 1 0 180 arc tMatrix setmatrix
  closepath} bdef
/FtbRR {MtbRR stroke } bdef
/PtbRR {MtbRR fill } bdef
/stri 6 array def /dtri 6 array def
/smat 6 array def /dmat 6 array def
/tmat1 6 array def /tmat2 6 array def /dif 3 array def
/asub {/ind2 exch def /ind1 exch def dup dup
  ind1 get exch ind2 get sub exch } bdef
/tri_to_matrix {
  2 0 asub 3 1 asub 4 0 asub 5 1 asub
  dup 0 get exch 1 get 7 -1 roll astore } bdef
/compute_transform {
  dmat dtri tri_to_matrix tmat1 invertmatrix 
  smat stri tri_to_matrix tmat2 concatmatrix } bdef
/ds {stri astore pop} bdef
/dt {dtri astore pop} bdef
/db {2 copy /cols xdef /rows xdef mul dup 3 mul string
  currentfile 
  3 index 0 eq {/ASCIIHexDecode filter}
  {/ASCII85Decode filter 3 index 2 eq {/RunLengthDecode filter} if }
  ifelse exch readstring pop
  dup 0 3 index getinterval /rbmap xdef
  dup 2 index dup getinterval /gbmap xdef
  1 index dup 2 mul exch getinterval /bbmap xdef pop pop}bdef
/it {gs np dtri aload pop moveto lineto lineto cp c
  cols rows 8 compute_transform 
  rbmap gbmap bbmap true 3 colorimage gr}bdef
/il {newpath moveto lineto stroke}bdef
currentdict end def
%%EndProlog

%%BeginSetup
MathWorks begin

0 cap

end
%%EndSetup

%%Page: 1 1
%%BeginPageSetup
%%PageBoundingBox:    27    33   466   411
MathWorks begin
bpage
%%EndPageSetup

%%BeginObject: obj1
bplot

/dpi2point 12 def
portraitMode 0000 5100 csm

  330   157  5266  4536 rc
85 dict begin %Colortable dictionary
/c0 { 0.000000 0.000000 0.000000 sr} bdef
/c1 { 1.000000 1.000000 1.000000 sr} bdef
/c2 { 0.900000 0.000000 0.000000 sr} bdef
/c3 { 0.000000 0.820000 0.000000 sr} bdef
/c4 { 0.000000 0.000000 0.800000 sr} bdef
/c5 { 0.910000 0.820000 0.320000 sr} bdef
/c6 { 1.000000 0.260000 0.820000 sr} bdef
/c7 { 0.000000 0.820000 0.820000 sr} bdef
c0
1 j
1 sg
   0    0 6129 5111 rf
6 w
0 1092 2050 0 0 -1092 797 1486 4 MP
PP
-2050 0 0 1092 2050 0 0 -1092 797 1486 5 MP stroke
4 w
DO
SO
6 w
0 sg
 797 1486 mt 2847 1486 L
 797  394 mt 2847  394 L
 797 1486 mt  797  394 L
2847 1486 mt 2847  394 L
 797 1486 mt 2847 1486 L
 797 1486 mt  797  394 L
1138 1486 mt 1138 1465 L
1138  394 mt 1138  414 L
%%IncludeResource: font Helvetica
/Helvetica /ISOLatin1Encoding 96 FMSR

 950 1609 mt 
(anagram) s
1480 1486 mt 1480 1465 L
1480  394 mt 1480  414 L
1406 1609 mt 
(cc1) s
1822 1486 mt 1822 1465 L
1822  394 mt 1822  414 L
1614 1609 mt 
(compress) s
2163 1486 mt 2163 1465 L
2163  394 mt 2163  414 L
2110 1609 mt 
(go) s
2505 1486 mt 2505 1465 L
2505  394 mt 2505  414 L
2425 1609 mt 
(perl) s
 797 1304 mt  817 1304 L
2847 1304 mt 2826 1304 L
 573 1339 mt 
(-0.1) s
 797 1122 mt  817 1122 L
2847 1122 mt 2826 1122 L
 520 1157 mt 
(-0.05) s
 797  940 mt  817  940 L
2847  940 mt 2826  940 L
 709  975 mt 
(0) s
 797  757 mt  817  757 L
2847  757 mt 2826  757 L
 576  792 mt 
(0.05) s
 797  576 mt  817  576 L
2847  576 mt 2826  576 L
 629  611 mt 
(0.1) s
 797  394 mt  817  394 L
2847  394 mt 2826  394 L
 576  429 mt 
(0.15) s
 797 1486 mt 2847 1486 L
 797  394 mt 2847  394 L
 797 1486 mt  797  394 L
2847 1486 mt 2847  394 L
gs 797 394 2051 1093 rc
/c8 { 0.000000 0.000000 0.562500 sr} bdef
c8
0 -277 18 0 0 277 1004 940 4 MP
PP
0 sg
-18 0 0 -277 18 0 0 277 1004 940 5 MP stroke
c8
0 -2414 19 0 0 2414 1345 940 4 MP
PP
0 sg
-19 0 0 -2414 19 0 0 2414 1345 940 5 MP stroke
c8
0 19 18 0 0 -19 1687 940 4 MP
PP
0 sg
-18 0 0 19 18 0 0 -19 1687 940 5 MP stroke
c8
0 228 18 0 0 -228 2029 940 4 MP
PP
0 sg
-18 0 0 228 18 0 0 -228 2029 940 5 MP stroke
c8
0 -318 19 0 0 318 2370 940 4 MP
PP
0 sg
-19 0 0 -318 19 0 0 318 2370 940 5 MP stroke
12 w
2050 0 797 940 2 MP stroke
/c9 { 0.000000 0.000000 0.875000 sr} bdef
c9
0 3 18 0 0 -3 1027 940 4 MP
PP
6 w
0 sg
-18 0 0 3 18 0 0 -3 1027 940 5 MP stroke
c9
0 7 18 0 0 -7 1368 940 4 MP
PP
0 sg
-18 0 0 7 18 0 0 -7 1368 940 5 MP stroke
c9
0 21 18 0 0 -21 1710 940 4 MP
PP
0 sg
-18 0 0 21 18 0 0 -21 1710 940 5 MP stroke
c9
0 126 18 0 0 -126 2052 940 4 MP
PP
0 sg
-18 0 0 126 18 0 0 -126 2052 940 5 MP stroke
c9
0 40 18 0 0 -40 2393 940 4 MP
PP
0 sg
-18 0 0 40 18 0 0 -40 2393 940 5 MP stroke
/c10 { 0.000000 0.250000 1.000000 sr} bdef
c10
0 -278 19 0 0 278 1049 940 4 MP
PP
0 sg
-19 0 0 -278 19 0 0 278 1049 940 5 MP stroke
c10
0 -2435 18 0 0 2435 1391 940 4 MP
PP
0 sg
-18 0 0 -2435 18 0 0 2435 1391 940 5 MP stroke
c10
0 19 18 0 0 -19 1733 940 4 MP
PP
0 sg
-18 0 0 19 18 0 0 -19 1733 940 5 MP stroke
c10
0 223 19 0 0 -223 2074 940 4 MP
PP
0 sg
-19 0 0 223 19 0 0 -223 2074 940 5 MP stroke
c10
0 -338 18 0 0 338 2416 940 4 MP
PP
0 sg
-18 0 0 -338 18 0 0 338 2416 940 5 MP stroke
/c11 { 0.000000 0.625000 1.000000 sr} bdef
c11
0 10 18 0 0 -10 1072 940 4 MP
PP
0 sg
-18 0 0 10 18 0 0 -10 1072 940 5 MP stroke
c11
0 27 18 0 0 -27 1414 940 4 MP
PP
0 sg
-18 0 0 27 18 0 0 -27 1414 940 5 MP stroke
c11
0 20 19 0 0 -20 1755 940 4 MP
PP
0 sg
-19 0 0 20 19 0 0 -20 1755 940 5 MP stroke
c11
0 143 18 0 0 -143 2097 940 4 MP
PP
0 sg
-18 0 0 143 18 0 0 -143 2097 940 5 MP stroke
c11
0 110 18 0 0 -110 2439 940 4 MP
PP
0 sg
-18 0 0 110 18 0 0 -110 2439 940 5 MP stroke
/c12 { 0.000000 1.000000 1.000000 sr} bdef
c12
0 120 18 0 0 -120 1095 940 4 MP
PP
0 sg
-18 0 0 120 18 0 0 -120 1095 940 5 MP stroke
c12
0 -1153 18 0 0 1153 1437 940 4 MP
PP
0 sg
-18 0 0 -1153 18 0 0 1153 1437 940 5 MP stroke
c12
0 21 18 0 0 -21 1778 940 4 MP
PP
0 sg
-18 0 0 21 18 0 0 -21 1778 940 5 MP stroke
c12
0 313 18 0 0 -313 2120 940 4 MP
PP
0 sg
-18 0 0 313 18 0 0 -313 2120 940 5 MP stroke
c12
0 483 18 0 0 -483 2462 940 4 MP
PP
0 sg
-18 0 0 483 18 0 0 -483 2462 940 5 MP stroke
/c13 { 0.375000 1.000000 0.625000 sr} bdef
c13
0 31 18 0 0 -31 1118 940 4 MP
PP
0 sg
-18 0 0 31 18 0 0 -31 1118 940 5 MP stroke
c13
0 57 19 0 0 -57 1459 940 4 MP
PP
0 sg
-19 0 0 57 19 0 0 -57 1459 940 5 MP stroke
c13
0 21 18 0 0 -21 1801 940 4 MP
PP
0 sg
-18 0 0 21 18 0 0 -21 1801 940 5 MP stroke
c13
0 298 18 0 0 -298 2143 940 4 MP
PP
0 sg
-18 0 0 298 18 0 0 -298 2143 940 5 MP stroke
c13
0 482 19 0 0 -482 2484 940 4 MP
PP
0 sg
-19 0 0 482 19 0 0 -482 2484 940 5 MP stroke
/c14 { 0.687500 1.000000 0.312500 sr} bdef
c14
0 115 19 0 0 -115 1140 940 4 MP
PP
0 sg
-19 0 0 115 19 0 0 -115 1140 940 5 MP stroke
c14
0 -1165 18 0 0 1165 1482 940 4 MP
PP
0 sg
-18 0 0 -1165 18 0 0 1165 1482 940 5 MP stroke
c14
0 21 18 0 0 -21 1824 940 4 MP
PP
0 sg
-18 0 0 21 18 0 0 -21 1824 940 5 MP stroke
c14
0 311 19 0 0 -311 2165 940 4 MP
PP
0 sg
-19 0 0 311 19 0 0 -311 2165 940 5 MP stroke
c14
0 468 18 0 0 -468 2507 940 4 MP
PP
0 sg
-18 0 0 468 18 0 0 -468 2507 940 5 MP stroke
/c15 { 1.000000 0.937500 0.000000 sr} bdef
c15
0 53 18 0 0 -53 1163 940 4 MP
PP
0 sg
-18 0 0 53 18 0 0 -53 1163 940 5 MP stroke
c15
0 85 18 0 0 -85 1505 940 4 MP
PP
0 sg
-18 0 0 85 18 0 0 -85 1505 940 5 MP stroke
c15
0 20 18 0 0 -20 1847 940 4 MP
PP
0 sg
-18 0 0 20 18 0 0 -20 1847 940 5 MP stroke
c15
0 305 18 0 0 -305 2188 940 4 MP
PP
0 sg
-18 0 0 305 18 0 0 -305 2188 940 5 MP stroke
c15
0 144 18 0 0 -144 2530 940 4 MP
PP
0 sg
-18 0 0 144 18 0 0 -144 2530 940 5 MP stroke
/c16 { 1.000000 0.562500 0.000000 sr} bdef
c16
0 120 18 0 0 -120 1186 940 4 MP
PP
0 sg
-18 0 0 120 18 0 0 -120 1186 940 5 MP stroke
c16
0 -231 18 0 0 231 1528 940 4 MP
PP
0 sg
-18 0 0 -231 18 0 0 231 1528 940 5 MP stroke
c16
0 21 19 0 0 -21 1869 940 4 MP
PP
0 sg
-19 0 0 21 19 0 0 -21 1869 940 5 MP stroke
c16
0 317 18 0 0 -317 2211 940 4 MP
PP
0 sg
-18 0 0 317 18 0 0 -317 2211 940 5 MP stroke
c16
0 213 18 0 0 -213 2553 940 4 MP
PP
0 sg
-18 0 0 213 18 0 0 -213 2553 940 5 MP stroke
/c17 { 1.000000 0.187500 0.000000 sr} bdef
c17
0 -146 18 0 0 146 1209 940 4 MP
PP
0 sg
-18 0 0 -146 18 0 0 146 1209 940 5 MP stroke
c17
0 98 19 0 0 -98 1550 940 4 MP
PP
0 sg
-19 0 0 98 19 0 0 -98 1550 940 5 MP stroke
c17
0 20 18 0 0 -20 1892 940 4 MP
PP
0 sg
-18 0 0 20 18 0 0 -20 1892 940 5 MP stroke
c17
0 302 18 0 0 -302 2234 940 4 MP
PP
0 sg
-18 0 0 302 18 0 0 -302 2234 940 5 MP stroke
c17
0 57 19 0 0 -57 2575 940 4 MP
PP
0 sg
-19 0 0 57 19 0 0 -57 2575 940 5 MP stroke
/c18 { 0.812500 0.000000 0.000000 sr} bdef
c18
0 -597 18 0 0 597 1232 940 4 MP
PP
0 sg
-18 0 0 -597 18 0 0 597 1232 940 5 MP stroke
c18
0 -301 18 0 0 301 1573 940 4 MP
PP
0 sg
-18 0 0 -301 18 0 0 301 1573 940 5 MP stroke
c18
0 4 18 0 0 -4 1915 940 4 MP
PP
0 sg
-18 0 0 4 18 0 0 -4 1915 940 5 MP stroke
c18
0 306 18 0 0 -306 2257 940 4 MP
PP
0 sg
-18 0 0 306 18 0 0 -306 2257 940 5 MP stroke
c18
0 140 18 0 0 -140 2598 940 4 MP
PP
0 sg
-18 0 0 140 18 0 0 -140 2598 940 5 MP stroke
/c19 { 0.500000 0.000000 0.000000 sr} bdef
c19
0 53 19 0 0 -53 1254 940 4 MP
PP
0 sg
-19 0 0 53 19 0 0 -53 1254 940 5 MP stroke
c19
0 197 18 0 0 -197 1596 940 4 MP
PP
0 sg
-18 0 0 197 18 0 0 -197 1596 940 5 MP stroke
c19
0 20 18 0 0 -20 1938 940 4 MP
PP
0 sg
-18 0 0 20 18 0 0 -20 1938 940 5 MP stroke
c19
0 311 19 0 0 -311 2279 940 4 MP
PP
0 sg
-19 0 0 311 19 0 0 -311 2279 940 5 MP stroke
c19
0 168 18 0 0 -168 2621 940 4 MP
PP
0 sg
-18 0 0 168 18 0 0 -168 2621 940 5 MP stroke
gr

1418  319 mt 
(d1$ 16kB 128:32:4) s
 444 1189 mt  -90 rotate
(Speedup %) s
90 rotate
1 sg
0 1092 2051 0 0 -1092 3495 1486 4 MP
PP
-2051 0 0 1092 2051 0 0 -1092 3495 1486 5 MP stroke
4 w
DO
SO
6 w
0 sg
3495 1486 mt 5546 1486 L
3495  394 mt 5546  394 L
3495 1486 mt 3495  394 L
5546 1486 mt 5546  394 L
3495 1486 mt 5546 1486 L
3495 1486 mt 3495  394 L
3836 1486 mt 3836 1465 L
3836  394 mt 3836  414 L
3648 1609 mt 
(anagram) s
4178 1486 mt 4178 1465 L
4178  394 mt 4178  414 L
4104 1609 mt 
(cc1) s
4520 1486 mt 4520 1465 L
4520  394 mt 4520  414 L
4312 1609 mt 
(compress) s
4862 1486 mt 4862 1465 L
4862  394 mt 4862  414 L
4809 1609 mt 
(go) s
5204 1486 mt 5204 1465 L
5204  394 mt 5204  414 L
5124 1609 mt 
(perl) s
3495 1486 mt 3515 1486 L
5546 1486 mt 5525 1486 L
3271 1521 mt 
(-0.2) s
3495 1174 mt 3515 1174 L
5546 1174 mt 5525 1174 L
3407 1209 mt 
(0) s
3495  861 mt 3515  861 L
5546  861 mt 5525  861 L
3327  896 mt 
(0.2) s
3495  549 mt 3515  549 L
5546  549 mt 5525  549 L
3327  584 mt 
(0.4) s
3495 1486 mt 5546 1486 L
3495  394 mt 5546  394 L
3495 1486 mt 3495  394 L
5546 1486 mt 5546  394 L
gs 3495 394 2052 1093 rc
c8
0 504 18 0 0 -504 3702 1174 4 MP
PP
0 sg
-18 0 0 504 18 0 0 -504 3702 1174 5 MP stroke
c8
0 -643 18 0 0 643 4044 1174 4 MP
PP
0 sg
-18 0 0 -643 18 0 0 643 4044 1174 5 MP stroke
c8
0 14 18 0 0 -14 4386 1174 4 MP
PP
0 sg
-18 0 0 14 18 0 0 -14 4386 1174 5 MP stroke
c8
0 694 19 0 0 -694 4727 1174 4 MP
PP
0 sg
-19 0 0 694 19 0 0 -694 4727 1174 5 MP stroke
c8
0 405 18 0 0 -405 5069 1174 4 MP
PP
0 sg
-18 0 0 405 18 0 0 -405 5069 1174 5 MP stroke
12 w
2051 0 3495 1174 2 MP stroke
c9
0 325 18 0 0 -325 3725 1174 4 MP
PP
6 w
0 sg
-18 0 0 325 18 0 0 -325 3725 1174 5 MP stroke
c9
0 87 18 0 0 -87 4067 1174 4 MP
PP
0 sg
-18 0 0 87 18 0 0 -87 4067 1174 5 MP stroke
c9
0 14 19 0 0 -14 4408 1174 4 MP
PP
0 sg
-19 0 0 14 19 0 0 -14 4408 1174 5 MP stroke
c9
0 572 18 0 0 -572 4750 1174 4 MP
PP
0 sg
-18 0 0 572 18 0 0 -572 4750 1174 5 MP stroke
c9
0 326 18 0 0 -326 5092 1174 4 MP
PP
0 sg
-18 0 0 326 18 0 0 -326 5092 1174 5 MP stroke
c10
0 503 19 0 0 -503 3747 1174 4 MP
PP
0 sg
-19 0 0 503 19 0 0 -503 3747 1174 5 MP stroke
c10
0 -653 19 0 0 653 4089 1174 4 MP
PP
0 sg
-19 0 0 -653 19 0 0 653 4089 1174 5 MP stroke
c10
0 14 18 0 0 -14 4431 1174 4 MP
PP
0 sg
-18 0 0 14 18 0 0 -14 4431 1174 5 MP stroke
c10
0 692 18 0 0 -692 4773 1174 4 MP
PP
0 sg
-18 0 0 692 18 0 0 -692 4773 1174 5 MP stroke
c10
0 395 18 0 0 -395 5115 1174 4 MP
PP
0 sg
-18 0 0 395 18 0 0 -395 5115 1174 5 MP stroke
c11
0 438 18 0 0 -438 3770 1174 4 MP
PP
0 sg
-18 0 0 438 18 0 0 -438 3770 1174 5 MP stroke
c11
0 132 18 0 0 -132 4112 1174 4 MP
PP
0 sg
-18 0 0 132 18 0 0 -132 4112 1174 5 MP stroke
c11
0 14 18 0 0 -14 4454 1174 4 MP
PP
0 sg
-18 0 0 14 18 0 0 -14 4454 1174 5 MP stroke
c11
0 606 18 0 0 -606 4796 1174 4 MP
PP
0 sg
-18 0 0 606 18 0 0 -606 4796 1174 5 MP stroke
c11
0 363 18 0 0 -363 5138 1174 4 MP
PP
0 sg
-18 0 0 363 18 0 0 -363 5138 1174 5 MP stroke
c12
0 674 18 0 0 -674 3793 1174 4 MP
PP
0 sg
-18 0 0 674 18 0 0 -674 3793 1174 5 MP stroke
c12
0 -108 18 0 0 108 4135 1174 4 MP
PP
0 sg
-18 0 0 -108 18 0 0 108 4135 1174 5 MP stroke
c12
0 15 18 0 0 -15 4477 1174 4 MP
PP
0 sg
-18 0 0 15 18 0 0 -15 4477 1174 5 MP stroke
c12
0 729 18 0 0 -729 4819 1174 4 MP
PP
0 sg
-18 0 0 729 18 0 0 -729 4819 1174 5 MP stroke
c12
0 746 19 0 0 -746 5160 1174 4 MP
PP
0 sg
-19 0 0 746 19 0 0 -746 5160 1174 5 MP stroke
c13
0 419 18 0 0 -419 3816 1174 4 MP
PP
0 sg
-18 0 0 419 18 0 0 -419 3816 1174 5 MP stroke
c13
0 215 18 0 0 -215 4158 1174 4 MP
PP
0 sg
-18 0 0 215 18 0 0 -215 4158 1174 5 MP stroke
c13
0 14 19 0 0 -14 4499 1174 4 MP
PP
0 sg
-19 0 0 14 19 0 0 -14 4499 1174 5 MP stroke
c13
0 726 19 0 0 -726 4841 1174 4 MP
PP
0 sg
-19 0 0 726 19 0 0 -726 4841 1174 5 MP stroke
c13
0 535 18 0 0 -535 5183 1174 4 MP
PP
0 sg
-18 0 0 535 18 0 0 -535 5183 1174 5 MP stroke
c14
0 672 18 0 0 -672 3839 1174 4 MP
PP
0 sg
-18 0 0 672 18 0 0 -672 3839 1174 5 MP stroke
c14
0 -114 19 0 0 114 4180 1174 4 MP
PP
0 sg
-19 0 0 -114 19 0 0 114 4180 1174 5 MP stroke
c14
0 15 19 0 0 -15 4522 1174 4 MP
PP
0 sg
-19 0 0 15 19 0 0 -15 4522 1174 5 MP stroke
c14
0 729 18 0 0 -729 4864 1174 4 MP
PP
0 sg
-18 0 0 729 18 0 0 -729 4864 1174 5 MP stroke
c14
0 736 18 0 0 -736 5206 1174 4 MP
PP
0 sg
-18 0 0 736 18 0 0 -736 5206 1174 5 MP stroke
c15
0 526 19 0 0 -526 3861 1174 4 MP
PP
0 sg
-19 0 0 526 19 0 0 -526 3861 1174 5 MP stroke
c15
0 260 18 0 0 -260 4203 1174 4 MP
PP
0 sg
-18 0 0 260 18 0 0 -260 4203 1174 5 MP stroke
c15
0 14 18 0 0 -14 4545 1174 4 MP
PP
0 sg
-18 0 0 14 18 0 0 -14 4545 1174 5 MP stroke
c15
0 728 18 0 0 -728 4887 1174 4 MP
PP
0 sg
-18 0 0 728 18 0 0 -728 4887 1174 5 MP stroke
c15
0 595 18 0 0 -595 5229 1174 4 MP
PP
0 sg
-18 0 0 595 18 0 0 -595 5229 1174 5 MP stroke
c16
0 674 18 0 0 -674 3884 1174 4 MP
PP
0 sg
-18 0 0 674 18 0 0 -674 3884 1174 5 MP stroke
c16
0 283 18 0 0 -283 4226 1174 4 MP
PP
0 sg
-18 0 0 283 18 0 0 -283 4226 1174 5 MP stroke
c16
0 15 18 0 0 -15 4568 1174 4 MP
PP
0 sg
-18 0 0 15 18 0 0 -15 4568 1174 5 MP stroke
c16
0 732 18 0 0 -732 4910 1174 4 MP
PP
0 sg
-18 0 0 732 18 0 0 -732 4910 1174 5 MP stroke
c16
0 635 18 0 0 -635 5252 1174 4 MP
PP
0 sg
-18 0 0 635 18 0 0 -635 5252 1174 5 MP stroke
c17
0 58 18 0 0 -58 3907 1174 4 MP
PP
0 sg
-18 0 0 58 18 0 0 -58 3907 1174 5 MP stroke
c17
0 270 18 0 0 -270 4249 1174 4 MP
PP
0 sg
-18 0 0 270 18 0 0 -270 4249 1174 5 MP stroke
c17
0 14 18 0 0 -14 4591 1174 4 MP
PP
0 sg
-18 0 0 14 18 0 0 -14 4591 1174 5 MP stroke
c17
0 726 19 0 0 -726 4932 1174 4 MP
PP
0 sg
-19 0 0 726 19 0 0 -726 4932 1174 5 MP stroke
c17
0 350 19 0 0 -350 5274 1174 4 MP
PP
0 sg
-19 0 0 350 19 0 0 -350 5274 1174 5 MP stroke
c18
0 369 18 0 0 -369 3930 1174 4 MP
PP
0 sg
-18 0 0 369 18 0 0 -369 3930 1174 5 MP stroke
c18
0 251 18 0 0 -251 4272 1174 4 MP
PP
0 sg
-18 0 0 251 18 0 0 -251 4272 1174 5 MP stroke
c18
0 8 19 0 0 -8 4613 1174 4 MP
PP
0 sg
-19 0 0 8 19 0 0 -8 4613 1174 5 MP stroke
c18
0 727 18 0 0 -727 4955 1174 4 MP
PP
0 sg
-18 0 0 727 18 0 0 -727 4955 1174 5 MP stroke
c18
0 601 18 0 0 -601 5297 1174 4 MP
PP
0 sg
-18 0 0 601 18 0 0 -601 5297 1174 5 MP stroke
c19
0 526 18 0 0 -526 3953 1174 4 MP
PP
0 sg
-18 0 0 526 18 0 0 -526 3953 1174 5 MP stroke
c19
0 371 19 0 0 -371 4294 1174 4 MP
PP
0 sg
-19 0 0 371 19 0 0 -371 4294 1174 5 MP stroke
c19
0 14 18 0 0 -14 4636 1174 4 MP
PP
0 sg
-18 0 0 14 18 0 0 -14 4636 1174 5 MP stroke
c19
0 730 18 0 0 -730 4978 1174 4 MP
PP
0 sg
-18 0 0 730 18 0 0 -730 4978 1174 5 MP stroke
c19
0 613 18 0 0 -613 5320 1174 4 MP
PP
0 sg
-18 0 0 613 18 0 0 -613 5320 1174 5 MP stroke
gr

4144  319 mt 
(d1$ 8kB 128:32:2) s
3195 1189 mt  -90 rotate
(Speedup %) s
90 rotate
1 sg
0 1092 2050 0 0 -1092 797 3017 4 MP
PP
-2050 0 0 1092 2050 0 0 -1092 797 3017 5 MP stroke
4 w
DO
SO
6 w
0 sg
 797 3017 mt 2847 3017 L
 797 1925 mt 2847 1925 L
 797 3017 mt  797 1925 L
2847 3017 mt 2847 1925 L
 797 3017 mt 2847 3017 L
 797 3017 mt  797 1925 L
1138 3017 mt 1138 2996 L
1138 1925 mt 1138 1945 L
 950 3140 mt 
(anagram) s
1480 3017 mt 1480 2996 L
1480 1925 mt 1480 1945 L
1406 3140 mt 
(cc1) s
1822 3017 mt 1822 2996 L
1822 1925 mt 1822 1945 L
1614 3140 mt 
(compress) s
2163 3017 mt 2163 2996 L
2163 1925 mt 2163 1945 L
2110 3140 mt 
(go) s
2505 3017 mt 2505 2996 L
2505 1925 mt 2505 1945 L
2425 3140 mt 
(perl) s
 797 2959 mt  817 2959 L
2847 2959 mt 2826 2959 L
 709 2994 mt 
(0) s
 797 2672 mt  817 2672 L
2847 2672 mt 2826 2672 L
 629 2707 mt 
(0.5) s
 797 2384 mt  817 2384 L
2847 2384 mt 2826 2384 L
 709 2419 mt 
(1) s
 797 2097 mt  817 2097 L
2847 2097 mt 2826 2097 L
 629 2132 mt 
(1.5) s
 797 3017 mt 2847 3017 L
 797 1925 mt 2847 1925 L
 797 3017 mt  797 1925 L
2847 3017 mt 2847 1925 L
gs 797 1925 2051 1093 rc
c8
0 941 18 0 0 -941 1004 2959 4 MP
PP
0 sg
-18 0 0 941 18 0 0 -941 1004 2959 5 MP stroke
c8
0 244 19 0 0 -244 1345 2959 4 MP
PP
0 sg
-19 0 0 244 19 0 0 -244 1345 2959 5 MP stroke
c8
0 27 18 0 0 -27 1687 2959 4 MP
PP
0 sg
-18 0 0 27 18 0 0 -27 1687 2959 5 MP stroke
c8
0 501 18 0 0 -501 2029 2959 4 MP
PP
0 sg
-18 0 0 501 18 0 0 -501 2029 2959 5 MP stroke
c8
0 401 19 0 0 -401 2370 2959 4 MP
PP
0 sg
-19 0 0 401 19 0 0 -401 2370 2959 5 MP stroke
12 w
2050 0 797 2959 2 MP stroke
c9
0 883 18 0 0 -883 1027 2959 4 MP
PP
6 w
0 sg
-18 0 0 883 18 0 0 -883 1027 2959 5 MP stroke
c9
0 315 18 0 0 -315 1368 2959 4 MP
PP
0 sg
-18 0 0 315 18 0 0 -315 1368 2959 5 MP stroke
c9
0 26 18 0 0 -26 1710 2959 4 MP
PP
0 sg
-18 0 0 26 18 0 0 -26 1710 2959 5 MP stroke
c9
0 426 18 0 0 -426 2052 2959 4 MP
PP
0 sg
-18 0 0 426 18 0 0 -426 2052 2959 5 MP stroke
c9
0 406 18 0 0 -406 2393 2959 4 MP
PP
0 sg
-18 0 0 406 18 0 0 -406 2393 2959 5 MP stroke
c10
0 942 19 0 0 -942 1049 2959 4 MP
PP
0 sg
-19 0 0 942 19 0 0 -942 1049 2959 5 MP stroke
c10
0 240 18 0 0 -240 1391 2959 4 MP
PP
0 sg
-18 0 0 240 18 0 0 -240 1391 2959 5 MP stroke
c10
0 27 18 0 0 -27 1733 2959 4 MP
PP
0 sg
-18 0 0 27 18 0 0 -27 1733 2959 5 MP stroke
c10
0 500 19 0 0 -500 2074 2959 4 MP
PP
0 sg
-19 0 0 500 19 0 0 -500 2074 2959 5 MP stroke
c10
0 397 18 0 0 -397 2416 2959 4 MP
PP
0 sg
-18 0 0 397 18 0 0 -397 2416 2959 5 MP stroke
c11
0 931 18 0 0 -931 1072 2959 4 MP
PP
0 sg
-18 0 0 931 18 0 0 -931 1072 2959 5 MP stroke
c11
0 364 18 0 0 -364 1414 2959 4 MP
PP
0 sg
-18 0 0 364 18 0 0 -364 1414 2959 5 MP stroke
c11
0 26 19 0 0 -26 1755 2959 4 MP
PP
0 sg
-19 0 0 26 19 0 0 -26 1755 2959 5 MP stroke
c11
0 469 18 0 0 -469 2097 2959 4 MP
PP
0 sg
-18 0 0 469 18 0 0 -469 2097 2959 5 MP stroke
c11
0 416 18 0 0 -416 2439 2959 4 MP
PP
0 sg
-18 0 0 416 18 0 0 -416 2439 2959 5 MP stroke
c12
0 996 18 0 0 -996 1095 2959 4 MP
PP
0 sg
-18 0 0 996 18 0 0 -996 1095 2959 5 MP stroke
c12
0 435 18 0 0 -435 1437 2959 4 MP
PP
0 sg
-18 0 0 435 18 0 0 -435 1437 2959 5 MP stroke
c12
0 27 18 0 0 -27 1778 2959 4 MP
PP
0 sg
-18 0 0 27 18 0 0 -27 1778 2959 5 MP stroke
c12
0 513 18 0 0 -513 2120 2959 4 MP
PP
0 sg
-18 0 0 513 18 0 0 -513 2120 2959 5 MP stroke
c12
0 521 18 0 0 -521 2462 2959 4 MP
PP
0 sg
-18 0 0 521 18 0 0 -521 2462 2959 5 MP stroke
c13
0 899 18 0 0 -899 1118 2959 4 MP
PP
0 sg
-18 0 0 899 18 0 0 -899 1118 2959 5 MP stroke
c13
0 438 19 0 0 -438 1459 2959 4 MP
PP
0 sg
-19 0 0 438 19 0 0 -438 1459 2959 5 MP stroke
c13
0 26 18 0 0 -26 1801 2959 4 MP
PP
0 sg
-18 0 0 26 18 0 0 -26 1801 2959 5 MP stroke
c13
0 512 18 0 0 -512 2143 2959 4 MP
PP
0 sg
-18 0 0 512 18 0 0 -512 2143 2959 5 MP stroke
c13
0 479 19 0 0 -479 2484 2959 4 MP
PP
0 sg
-19 0 0 479 19 0 0 -479 2484 2959 5 MP stroke
c14
0 995 19 0 0 -995 1140 2959 4 MP
PP
0 sg
-19 0 0 995 19 0 0 -995 1140 2959 5 MP stroke
c14
0 433 18 0 0 -433 1482 2959 4 MP
PP
0 sg
-18 0 0 433 18 0 0 -433 1482 2959 5 MP stroke
c14
0 27 18 0 0 -27 1824 2959 4 MP
PP
0 sg
-18 0 0 27 18 0 0 -27 1824 2959 5 MP stroke
c14
0 513 19 0 0 -513 2165 2959 4 MP
PP
0 sg
-19 0 0 513 19 0 0 -513 2165 2959 5 MP stroke
c14
0 517 18 0 0 -517 2507 2959 4 MP
PP
0 sg
-18 0 0 517 18 0 0 -517 2507 2959 5 MP stroke
c15
0 949 18 0 0 -949 1163 2959 4 MP
PP
0 sg
-18 0 0 949 18 0 0 -949 1163 2959 5 MP stroke
c15
0 479 18 0 0 -479 1505 2959 4 MP
PP
0 sg
-18 0 0 479 18 0 0 -479 1505 2959 5 MP stroke
c15
0 26 18 0 0 -26 1847 2959 4 MP
PP
0 sg
-18 0 0 26 18 0 0 -26 1847 2959 5 MP stroke
c15
0 513 18 0 0 -513 2188 2959 4 MP
PP
0 sg
-18 0 0 513 18 0 0 -513 2188 2959 5 MP stroke
c15
0 465 18 0 0 -465 2530 2959 4 MP
PP
0 sg
-18 0 0 465 18 0 0 -465 2530 2959 5 MP stroke
c16
0 996 18 0 0 -996 1186 2959 4 MP
PP
0 sg
-18 0 0 996 18 0 0 -996 1186 2959 5 MP stroke
c16
0 576 18 0 0 -576 1528 2959 4 MP
PP
0 sg
-18 0 0 576 18 0 0 -576 1528 2959 5 MP stroke
c16
0 27 19 0 0 -27 1869 2959 4 MP
PP
0 sg
-19 0 0 27 19 0 0 -27 1869 2959 5 MP stroke
c16
0 514 18 0 0 -514 2211 2959 4 MP
PP
0 sg
-18 0 0 514 18 0 0 -514 2211 2959 5 MP stroke
c16
0 483 18 0 0 -483 2553 2959 4 MP
PP
0 sg
-18 0 0 483 18 0 0 -483 2553 2959 5 MP stroke
c17
0 731 18 0 0 -731 1209 2959 4 MP
PP
0 sg
-18 0 0 731 18 0 0 -731 1209 2959 5 MP stroke
c17
0 510 19 0 0 -510 1550 2959 4 MP
PP
0 sg
-19 0 0 510 19 0 0 -510 1550 2959 5 MP stroke
c17
0 25 18 0 0 -25 1892 2959 4 MP
PP
0 sg
-18 0 0 25 18 0 0 -25 1892 2959 5 MP stroke
c17
0 512 18 0 0 -512 2234 2959 4 MP
PP
0 sg
-18 0 0 512 18 0 0 -512 2234 2959 5 MP stroke
c17
0 411 19 0 0 -411 2575 2959 4 MP
PP
0 sg
-19 0 0 411 19 0 0 -411 2575 2959 5 MP stroke
c18
0 896 18 0 0 -896 1232 2959 4 MP
PP
0 sg
-18 0 0 896 18 0 0 -896 1232 2959 5 MP stroke
c18
0 564 18 0 0 -564 1573 2959 4 MP
PP
0 sg
-18 0 0 564 18 0 0 -564 1573 2959 5 MP stroke
c18
0 25 18 0 0 -25 1915 2959 4 MP
PP
0 sg
-18 0 0 25 18 0 0 -25 1915 2959 5 MP stroke
c18
0 512 18 0 0 -512 2257 2959 4 MP
PP
0 sg
-18 0 0 512 18 0 0 -512 2257 2959 5 MP stroke
c18
0 471 18 0 0 -471 2598 2959 4 MP
PP
0 sg
-18 0 0 471 18 0 0 -471 2598 2959 5 MP stroke
c19
0 949 19 0 0 -949 1254 2959 4 MP
PP
0 sg
-19 0 0 949 19 0 0 -949 1254 2959 5 MP stroke
c19
0 553 18 0 0 -553 1596 2959 4 MP
PP
0 sg
-18 0 0 553 18 0 0 -553 1596 2959 5 MP stroke
c19
0 26 18 0 0 -26 1938 2959 4 MP
PP
0 sg
-18 0 0 26 18 0 0 -26 1938 2959 5 MP stroke
c19
0 513 19 0 0 -513 2279 2959 4 MP
PP
0 sg
-19 0 0 513 19 0 0 -513 2279 2959 5 MP stroke
c19
0 473 18 0 0 -473 2621 2959 4 MP
PP
0 sg
-18 0 0 473 18 0 0 -473 2621 2959 5 MP stroke
gr

1445 1850 mt 
(d1$ 4kB 128:32:1) s
 553 2720 mt  -90 rotate
(Speedup %) s
90 rotate
1 sg
0 1092 2051 0 0 -1092 3495 3017 4 MP
PP
-2051 0 0 1092 2051 0 0 -1092 3495 3017 5 MP stroke
4 w
DO
SO
6 w
0 sg
3495 3017 mt 5546 3017 L
3495 1925 mt 5546 1925 L
3495 3017 mt 3495 1925 L
5546 3017 mt 5546 1925 L
3495 3017 mt 5546 3017 L
3495 3017 mt 3495 1925 L
3836 3017 mt 3836 2996 L
3836 1925 mt 3836 1945 L
3648 3140 mt 
(anagram) s
4178 3017 mt 4178 2996 L
4178 1925 mt 4178 1945 L
4104 3140 mt 
(cc1) s
4520 3017 mt 4520 2996 L
4520 1925 mt 4520 1945 L
4312 3140 mt 
(compress) s
4862 3017 mt 4862 2996 L
4862 1925 mt 4862 1945 L
4809 3140 mt 
(go) s
5204 3017 mt 5204 2996 L
5204 1925 mt 5204 1945 L
5124 3140 mt 
(perl) s
3495 3017 mt 3515 3017 L
5546 3017 mt 5525 3017 L
3271 3052 mt 
(-0.2) s
3495 2675 mt 3515 2675 L
5546 2675 mt 5525 2675 L
3271 2710 mt 
(-0.1) s
3495 2334 mt 3515 2334 L
5546 2334 mt 5525 2334 L
3407 2369 mt 
(0) s
3495 1993 mt 3515 1993 L
5546 1993 mt 5525 1993 L
3327 2028 mt 
(0.1) s
3495 3017 mt 5546 3017 L
3495 1925 mt 5546 1925 L
3495 3017 mt 3495 1925 L
5546 3017 mt 5546 1925 L
gs 3495 1925 2052 1093 rc
c8
0 -95 18 0 0 95 3702 2334 4 MP
PP
0 sg
-18 0 0 -95 18 0 0 95 3702 2334 5 MP stroke
c8
0 -2067 18 0 0 2067 4044 2334 4 MP
PP
0 sg
-18 0 0 -2067 18 0 0 2067 4044 2334 5 MP stroke
c8
0 19 18 0 0 -19 4386 2334 4 MP
PP
0 sg
-18 0 0 19 18 0 0 -19 4386 2334 5 MP stroke
c8
0 39 19 0 0 -39 4727 2334 4 MP
PP
0 sg
-19 0 0 39 19 0 0 -39 4727 2334 5 MP stroke
c8
0 -566 18 0 0 566 5069 2334 4 MP
PP
0 sg
-18 0 0 -566 18 0 0 566 5069 2334 5 MP stroke
12 w
2051 0 3495 2334 2 MP stroke
c9
0 53 18 0 0 -53 3725 2334 4 MP
PP
6 w
0 sg
-18 0 0 53 18 0 0 -53 3725 2334 5 MP stroke
c9
0 56 18 0 0 -56 4067 2334 4 MP
PP
0 sg
-18 0 0 56 18 0 0 -56 4067 2334 5 MP stroke
c9
0 22 19 0 0 -22 4408 2334 4 MP
PP
0 sg
-19 0 0 22 19 0 0 -22 4408 2334 5 MP stroke
c9
0 -15 18 0 0 15 4750 2334 4 MP
PP
0 sg
-18 0 0 -15 18 0 0 15 4750 2334 5 MP stroke
c9
0 -209 18 0 0 209 5092 2334 4 MP
PP
0 sg
-18 0 0 -209 18 0 0 209 5092 2334 5 MP stroke
c10
0 -96 19 0 0 96 3747 2334 4 MP
PP
0 sg
-19 0 0 -96 19 0 0 96 3747 2334 5 MP stroke
c10
0 -2087 19 0 0 2087 4089 2334 4 MP
PP
0 sg
-19 0 0 -2087 19 0 0 2087 4089 2334 5 MP stroke
c10
0 19 18 0 0 -19 4431 2334 4 MP
PP
0 sg
-18 0 0 19 18 0 0 -19 4431 2334 5 MP stroke
c10
0 35 18 0 0 -35 4773 2334 4 MP
PP
0 sg
-18 0 0 35 18 0 0 -35 4773 2334 5 MP stroke
c10
0 -585 18 0 0 585 5115 2334 4 MP
PP
0 sg
-18 0 0 -585 18 0 0 585 5115 2334 5 MP stroke
c11
0 113 18 0 0 -113 3770 2334 4 MP
PP
0 sg
-18 0 0 113 18 0 0 -113 3770 2334 5 MP stroke
c11
0 95 18 0 0 -95 4112 2334 4 MP
PP
0 sg
-18 0 0 95 18 0 0 -95 4112 2334 5 MP stroke
c11
0 21 18 0 0 -21 4454 2334 4 MP
PP
0 sg
-18 0 0 21 18 0 0 -21 4454 2334 5 MP stroke
c11
0 3 18 0 0 -3 4796 2334 4 MP
PP
0 sg
-18 0 0 3 18 0 0 -3 4796 2334 5 MP stroke
c11
0 -164 18 0 0 164 5138 2334 4 MP
PP
0 sg
-18 0 0 -164 18 0 0 164 5138 2334 5 MP stroke
c12
0 277 18 0 0 -277 3793 2334 4 MP
PP
0 sg
-18 0 0 277 18 0 0 -277 3793 2334 5 MP stroke
c12
0 -887 18 0 0 887 4135 2334 4 MP
PP
0 sg
-18 0 0 -887 18 0 0 887 4135 2334 5 MP stroke
c12
0 21 18 0 0 -21 4477 2334 4 MP
PP
0 sg
-18 0 0 21 18 0 0 -21 4477 2334 5 MP stroke
c12
0 121 18 0 0 -121 4819 2334 4 MP
PP
0 sg
-18 0 0 121 18 0 0 -121 4819 2334 5 MP stroke
c12
0 180 19 0 0 -180 5160 2334 4 MP
PP
0 sg
-19 0 0 180 19 0 0 -180 5160 2334 5 MP stroke
c13
0 81 18 0 0 -81 3816 2334 4 MP
PP
0 sg
-18 0 0 81 18 0 0 -81 3816 2334 5 MP stroke
c13
0 166 18 0 0 -166 4158 2334 4 MP
PP
0 sg
-18 0 0 166 18 0 0 -166 4158 2334 5 MP stroke
c13
0 22 19 0 0 -22 4499 2334 4 MP
PP
0 sg
-19 0 0 22 19 0 0 -22 4499 2334 5 MP stroke
c13
0 107 19 0 0 -107 4841 2334 4 MP
PP
0 sg
-19 0 0 107 19 0 0 -107 4841 2334 5 MP stroke
c13
0 192 18 0 0 -192 5183 2334 4 MP
PP
0 sg
-18 0 0 192 18 0 0 -192 5183 2334 5 MP stroke
c14
0 272 18 0 0 -272 3839 2334 4 MP
PP
0 sg
-18 0 0 272 18 0 0 -272 3839 2334 5 MP stroke
c14
0 -899 19 0 0 899 4180 2334 4 MP
PP
0 sg
-19 0 0 -899 19 0 0 899 4180 2334 5 MP stroke
c14
0 21 19 0 0 -21 4522 2334 4 MP
PP
0 sg
-19 0 0 21 19 0 0 -21 4522 2334 5 MP stroke
c14
0 120 18 0 0 -120 4864 2334 4 MP
PP
0 sg
-18 0 0 120 18 0 0 -120 4864 2334 5 MP stroke
c14
0 166 18 0 0 -166 5206 2334 4 MP
PP
0 sg
-18 0 0 166 18 0 0 -166 5206 2334 5 MP stroke
c15
0 156 19 0 0 -156 3861 2334 4 MP
PP
0 sg
-19 0 0 156 19 0 0 -156 3861 2334 5 MP stroke
c15
0 209 18 0 0 -209 4203 2334 4 MP
PP
0 sg
-18 0 0 209 18 0 0 -209 4203 2334 5 MP stroke
c15
0 21 18 0 0 -21 4545 2334 4 MP
PP
0 sg
-18 0 0 21 18 0 0 -21 4545 2334 5 MP stroke
c15
0 112 18 0 0 -112 4887 2334 4 MP
PP
0 sg
-18 0 0 112 18 0 0 -112 4887 2334 5 MP stroke
c15
0 -142 18 0 0 142 5229 2334 4 MP
PP
0 sg
-18 0 0 -142 18 0 0 142 5229 2334 5 MP stroke
c16
0 277 18 0 0 -277 3884 2334 4 MP
PP
0 sg
-18 0 0 277 18 0 0 -277 3884 2334 5 MP stroke
c16
0 -24 18 0 0 24 4226 2334 4 MP
PP
0 sg
-18 0 0 -24 18 0 0 24 4226 2334 5 MP stroke
c16
0 21 18 0 0 -21 4568 2334 4 MP
PP
0 sg
-18 0 0 21 18 0 0 -21 4568 2334 5 MP stroke
c16
0 125 18 0 0 -125 4910 2334 4 MP
PP
0 sg
-18 0 0 125 18 0 0 -125 4910 2334 5 MP stroke
c16
0 -71 18 0 0 71 5252 2334 4 MP
PP
0 sg
-18 0 0 -71 18 0 0 71 5252 2334 5 MP stroke
c17
0 -110 18 0 0 110 3907 2334 4 MP
PP
0 sg
-18 0 0 -110 18 0 0 110 3907 2334 5 MP stroke
c17
0 238 18 0 0 -238 4249 2334 4 MP
PP
0 sg
-18 0 0 238 18 0 0 -238 4249 2334 5 MP stroke
c17
0 21 18 0 0 -21 4591 2334 4 MP
PP
0 sg
-18 0 0 21 18 0 0 -21 4591 2334 5 MP stroke
c17
0 109 19 0 0 -109 4932 2334 4 MP
PP
0 sg
-19 0 0 109 19 0 0 -109 4932 2334 5 MP stroke
c17
0 -198 19 0 0 198 5274 2334 4 MP
PP
0 sg
-19 0 0 -198 19 0 0 198 5274 2334 5 MP stroke
c18
0 -394 18 0 0 394 3930 2334 4 MP
PP
0 sg
-18 0 0 -394 18 0 0 394 3930 2334 5 MP stroke
c18
0 -91 18 0 0 91 4272 2334 4 MP
PP
0 sg
-18 0 0 -91 18 0 0 91 4272 2334 5 MP stroke
c18
0 5 19 0 0 -5 4613 2334 4 MP
PP
0 sg
-19 0 0 5 19 0 0 -5 4613 2334 5 MP stroke
c18
0 115 18 0 0 -115 4955 2334 4 MP
PP
0 sg
-18 0 0 115 18 0 0 -115 4955 2334 5 MP stroke
c18
0 -138 18 0 0 138 5297 2334 4 MP
PP
0 sg
-18 0 0 -138 18 0 0 138 5297 2334 5 MP stroke
c19
0 156 18 0 0 -156 3953 2334 4 MP
PP
0 sg
-18 0 0 156 18 0 0 -156 3953 2334 5 MP stroke
c19
0 333 19 0 0 -333 4294 2334 4 MP
PP
0 sg
-19 0 0 333 19 0 0 -333 4294 2334 5 MP stroke
c19
0 21 18 0 0 -21 4636 2334 4 MP
PP
0 sg
-18 0 0 21 18 0 0 -21 4636 2334 5 MP stroke
c19
0 118 18 0 0 -118 4978 2334 4 MP
PP
0 sg
-18 0 0 118 18 0 0 -118 4978 2334 5 MP stroke
c19
0 -117 18 0 0 117 5320 2334 4 MP
PP
0 sg
-18 0 0 -117 18 0 0 117 5320 2334 5 MP stroke
gr

4117 1850 mt 
(d1$ 16kB 256:32:2) s
3195 2720 mt  -90 rotate
(Speedup %) s
90 rotate
1 sg
0 1092 2050 0 0 -1092 797 4548 4 MP
PP
-2050 0 0 1092 2050 0 0 -1092 797 4548 5 MP stroke
4 w
DO
SO
6 w
0 sg
 797 4548 mt 2847 4548 L
 797 3456 mt 2847 3456 L
 797 4548 mt  797 3456 L
2847 4548 mt 2847 3456 L
 797 4548 mt 2847 4548 L
 797 4548 mt  797 3456 L
1138 4548 mt 1138 4527 L
1138 3456 mt 1138 3476 L
 950 4671 mt 
(anagram) s
1480 4548 mt 1480 4527 L
1480 3456 mt 1480 3476 L
1406 4671 mt 
(cc1) s
1822 4548 mt 1822 4527 L
1822 3456 mt 1822 3476 L
1614 4671 mt 
(compress) s
2163 4548 mt 2163 4527 L
2163 3456 mt 2163 3476 L
2110 4671 mt 
(go) s
2505 4548 mt 2505 4527 L
2505 3456 mt 2505 3476 L
2425 4671 mt 
(perl) s
 797 4548 mt  817 4548 L
2847 4548 mt 2826 4548 L
 573 4583 mt 
(-0.2) s
 797 4184 mt  817 4184 L
2847 4184 mt 2826 4184 L
 709 4219 mt 
(0) s
 797 3820 mt  817 3820 L
2847 3820 mt 2826 3820 L
 629 3855 mt 
(0.2) s
 797 3456 mt  817 3456 L
2847 3456 mt 2826 3456 L
 629 3491 mt 
(0.4) s
 797 4548 mt 2847 4548 L
 797 3456 mt 2847 3456 L
 797 4548 mt  797 3456 L
2847 4548 mt 2847 3456 L
gs 797 3456 2051 1093 rc
c8
0 -41 18 0 0 41 1004 4184 4 MP
PP
0 sg
-18 0 0 -41 18 0 0 41 1004 4184 5 MP stroke
c8
0 -651 19 0 0 651 1345 4184 4 MP
PP
0 sg
-19 0 0 -651 19 0 0 651 1345 4184 5 MP stroke
c8
0 37 18 0 0 -37 1687 4184 4 MP
PP
0 sg
-18 0 0 37 18 0 0 -37 1687 4184 5 MP stroke
c8
0 67 18 0 0 -67 2029 4184 4 MP
PP
0 sg
-18 0 0 67 18 0 0 -67 2029 4184 5 MP stroke
c8
0 269 19 0 0 -269 2370 4184 4 MP
PP
0 sg
-19 0 0 269 19 0 0 -269 2370 4184 5 MP stroke
12 w
2050 0 797 4184 2 MP stroke
c9
0 70 18 0 0 -70 1027 4184 4 MP
PP
6 w
0 sg
-18 0 0 70 18 0 0 -70 1027 4184 5 MP stroke
c9
0 232 18 0 0 -232 1368 4184 4 MP
PP
0 sg
-18 0 0 232 18 0 0 -232 1368 4184 5 MP stroke
c9
0 38 18 0 0 -38 1710 4184 4 MP
PP
0 sg
-18 0 0 38 18 0 0 -38 1710 4184 5 MP stroke
c9
0 38 18 0 0 -38 2052 4184 4 MP
PP
0 sg
-18 0 0 38 18 0 0 -38 2052 4184 5 MP stroke
c9
0 381 18 0 0 -381 2393 4184 4 MP
PP
0 sg
-18 0 0 381 18 0 0 -381 2393 4184 5 MP stroke
c10
0 -41 19 0 0 41 1049 4184 4 MP
PP
0 sg
-19 0 0 -41 19 0 0 41 1049 4184 5 MP stroke
c10
0 -662 18 0 0 662 1391 4184 4 MP
PP
0 sg
-18 0 0 -662 18 0 0 662 1391 4184 5 MP stroke
c10
0 37 18 0 0 -37 1733 4184 4 MP
PP
0 sg
-18 0 0 37 18 0 0 -37 1733 4184 5 MP stroke
c10
0 64 19 0 0 -64 2074 4184 4 MP
PP
0 sg
-19 0 0 64 19 0 0 -64 2074 4184 5 MP stroke
c10
0 257 18 0 0 -257 2416 4184 4 MP
PP
0 sg
-18 0 0 257 18 0 0 -257 2416 4184 5 MP stroke
c11
0 73 18 0 0 -73 1072 4184 4 MP
PP
0 sg
-18 0 0 73 18 0 0 -73 1072 4184 5 MP stroke
c11
0 293 18 0 0 -293 1414 4184 4 MP
PP
0 sg
-18 0 0 293 18 0 0 -293 1414 4184 5 MP stroke
c11
0 38 19 0 0 -38 1755 4184 4 MP
PP
0 sg
-19 0 0 38 19 0 0 -38 1755 4184 5 MP stroke
c11
0 45 18 0 0 -45 2097 4184 4 MP
PP
0 sg
-18 0 0 45 18 0 0 -45 2097 4184 5 MP stroke
c11
0 457 18 0 0 -457 2439 4184 4 MP
PP
0 sg
-18 0 0 457 18 0 0 -457 2439 4184 5 MP stroke
c12
0 124 18 0 0 -124 1095 4184 4 MP
PP
0 sg
-18 0 0 124 18 0 0 -124 1095 4184 5 MP stroke
c12
0 -28 18 0 0 28 1437 4184 4 MP
PP
0 sg
-18 0 0 -28 18 0 0 28 1437 4184 5 MP stroke
c12
0 38 18 0 0 -38 1778 4184 4 MP
PP
0 sg
-18 0 0 38 18 0 0 -38 1778 4184 5 MP stroke
c12
0 110 18 0 0 -110 2120 4184 4 MP
PP
0 sg
-18 0 0 110 18 0 0 -110 2120 4184 5 MP stroke
c12
0 650 18 0 0 -650 2462 4184 4 MP
PP
0 sg
-18 0 0 650 18 0 0 -650 2462 4184 5 MP stroke
c13
0 84 18 0 0 -84 1118 4184 4 MP
PP
0 sg
-18 0 0 84 18 0 0 -84 1118 4184 5 MP stroke
c13
0 402 19 0 0 -402 1459 4184 4 MP
PP
0 sg
-19 0 0 402 19 0 0 -402 1459 4184 5 MP stroke
c13
0 38 18 0 0 -38 1801 4184 4 MP
PP
0 sg
-18 0 0 38 18 0 0 -38 1801 4184 5 MP stroke
c13
0 103 18 0 0 -103 2143 4184 4 MP
PP
0 sg
-18 0 0 103 18 0 0 -103 2143 4184 5 MP stroke
c13
0 612 19 0 0 -612 2484 4184 4 MP
PP
0 sg
-19 0 0 612 19 0 0 -612 2484 4184 5 MP stroke
c14
0 122 19 0 0 -122 1140 4184 4 MP
PP
0 sg
-19 0 0 122 19 0 0 -122 1140 4184 5 MP stroke
c14
0 -35 18 0 0 35 1482 4184 4 MP
PP
0 sg
-18 0 0 -35 18 0 0 35 1482 4184 5 MP stroke
c14
0 38 18 0 0 -38 1824 4184 4 MP
PP
0 sg
-18 0 0 38 18 0 0 -38 1824 4184 5 MP stroke
c14
0 109 19 0 0 -109 2165 4184 4 MP
PP
0 sg
-19 0 0 109 19 0 0 -109 2165 4184 5 MP stroke
c14
0 638 18 0 0 -638 2507 4184 4 MP
PP
0 sg
-18 0 0 638 18 0 0 -638 2507 4184 5 MP stroke
c15
0 95 18 0 0 -95 1163 4184 4 MP
PP
0 sg
-18 0 0 95 18 0 0 -95 1163 4184 5 MP stroke
c15
0 454 18 0 0 -454 1505 4184 4 MP
PP
0 sg
-18 0 0 454 18 0 0 -454 1505 4184 5 MP stroke
c15
0 38 18 0 0 -38 1847 4184 4 MP
PP
0 sg
-18 0 0 38 18 0 0 -38 1847 4184 5 MP stroke
c15
0 106 18 0 0 -106 2188 4184 4 MP
PP
0 sg
-18 0 0 106 18 0 0 -106 2188 4184 5 MP stroke
c15
0 499 18 0 0 -499 2530 4184 4 MP
PP
0 sg
-18 0 0 499 18 0 0 -499 2530 4184 5 MP stroke
c16
0 124 18 0 0 -124 1186 4184 4 MP
PP
0 sg
-18 0 0 124 18 0 0 -124 1186 4184 5 MP stroke
c16
0 428 18 0 0 -428 1528 4184 4 MP
PP
0 sg
-18 0 0 428 18 0 0 -428 1528 4184 5 MP stroke
c16
0 38 19 0 0 -38 1869 4184 4 MP
PP
0 sg
-19 0 0 38 19 0 0 -38 1869 4184 5 MP stroke
c16
0 112 18 0 0 -112 2211 4184 4 MP
PP
0 sg
-18 0 0 112 18 0 0 -112 2211 4184 5 MP stroke
c16
0 536 18 0 0 -536 2553 4184 4 MP
PP
0 sg
-18 0 0 536 18 0 0 -536 2553 4184 5 MP stroke
c17
0 -4 18 0 0 4 1209 4184 4 MP
PP
0 sg
-18 0 0 -4 18 0 0 4 1209 4184 5 MP stroke
c17
0 493 19 0 0 -493 1550 4184 4 MP
PP
0 sg
-19 0 0 493 19 0 0 -493 1550 4184 5 MP stroke
c17
0 37 18 0 0 -37 1892 4184 4 MP
PP
0 sg
-18 0 0 37 18 0 0 -37 1892 4184 5 MP stroke
c17
0 104 18 0 0 -104 2234 4184 4 MP
PP
0 sg
-18 0 0 104 18 0 0 -104 2234 4184 5 MP stroke
c17
0 424 19 0 0 -424 2575 4184 4 MP
PP
0 sg
-19 0 0 424 19 0 0 -424 2575 4184 5 MP stroke
c18
0 -227 18 0 0 227 1232 4184 4 MP
PP
0 sg
-18 0 0 -227 18 0 0 227 1232 4184 5 MP stroke
c18
0 391 18 0 0 -391 1573 4184 4 MP
PP
0 sg
-18 0 0 391 18 0 0 -391 1573 4184 5 MP stroke
c18
0 30 18 0 0 -30 1915 4184 4 MP
PP
0 sg
-18 0 0 30 18 0 0 -30 1915 4184 5 MP stroke
c18
0 107 18 0 0 -107 2257 4184 4 MP
PP
0 sg
-18 0 0 107 18 0 0 -107 2257 4184 5 MP stroke
c18
0 497 18 0 0 -497 2598 4184 4 MP
PP
0 sg
-18 0 0 497 18 0 0 -497 2598 4184 5 MP stroke
c19
0 95 19 0 0 -95 1254 4184 4 MP
PP
0 sg
-19 0 0 95 19 0 0 -95 1254 4184 5 MP stroke
c19
0 555 18 0 0 -555 1596 4184 4 MP
PP
0 sg
-18 0 0 555 18 0 0 -555 1596 4184 5 MP stroke
c19
0 38 18 0 0 -38 1938 4184 4 MP
PP
0 sg
-18 0 0 38 18 0 0 -38 1938 4184 5 MP stroke
c19
0 109 19 0 0 -109 2279 4184 4 MP
PP
0 sg
-19 0 0 109 19 0 0 -109 2279 4184 5 MP stroke
c19
0 515 18 0 0 -515 2621 4184 4 MP
PP
0 sg
-18 0 0 515 18 0 0 -515 2621 4184 5 MP stroke
gr

1418 3381 mt 
(d1$ 16kB 512:32:1) s
 497 4251 mt  -90 rotate
(Speedup %) s
90 rotate
%%IncludeResource: font Helvetica
/Helvetica /ISOLatin1Encoding 120 FMSR

 780 4591 mt 
( ) s
2831 3498 mt 
( ) s
1 sg
0 814 2181 0 0 -814 3324 4326 4 MP
PP
-2181 0 0 814 2181 0 0 -814 3324 4326 5 MP stroke
4 w
DO
SO
6 w
0 sg
3324 4326 mt 5505 4326 L
3324 3512 mt 5505 3512 L
3324 4326 mt 3324 3512 L
5505 4326 mt 5505 3512 L
3324 4326 mt 5505 4326 L
3324 4326 mt 3324 3512 L
3324 4326 mt 5505 4326 L
3324 3512 mt 5505 3512 L
3324 4326 mt 3324 3512 L
5505 4326 mt 5505 3512 L
%%IncludeResource: font Helvetica
/Helvetica /ISOLatin1Encoding 96 FMSR

3729 3614 mt 
(512B naive) s
gs 3324 3512 2182 815 rc
c8
-290 0 0 98 290 0 0 -98 3381 3629 5 MP
PP
0 sg
0 0 -290 0 0 98 290 0 0 -98 3381 3629 6 MP stroke
gr

3729 3750 mt 
(512B pre-tag) s
gs 3324 3512 2182 815 rc
c9
-290 0 0 99 290 0 0 -99 3381 3765 5 MP
PP
0 sg
0 0 -290 0 0 99 290 0 0 -99 3381 3765 6 MP stroke
gr

3729 3886 mt 
(512B pre+tag) s
gs 3324 3512 2182 815 rc
c10
-290 0 0 98 290 0 0 -98 3381 3900 5 MP
PP
0 sg
0 0 -290 0 0 98 290 0 0 -98 3381 3900 6 MP stroke
gr

3729 4021 mt 
(512B window) s
gs 3324 3512 2182 815 rc
c11
-290 0 0 98 290 0 0 -98 3381 4036 5 MP
PP
0 sg
0 0 -290 0 0 98 290 0 0 -98 3381 4036 6 MP stroke
gr

3729 4157 mt 
(1kB naive) s
gs 3324 3512 2182 815 rc
c12
-290 0 0 99 290 0 0 -99 3381 4172 5 MP
PP
0 sg
0 0 -290 0 0 99 290 0 0 -99 3381 4172 6 MP stroke
gr

3729 4293 mt 
(1kB pre-tag) s
gs 3324 3512 2182 815 rc
c13
-290 0 0 98 290 0 0 -98 3381 4307 5 MP
PP
0 sg
0 0 -290 0 0 98 290 0 0 -98 3381 4307 6 MP stroke
gr

4820 3614 mt 
(1kB pre+tag) s
gs 3324 3512 2182 815 rc
c14
-289 0 0 98 289 0 0 -98 4472 3629 5 MP
PP
0 sg
0 0 -289 0 0 98 289 0 0 -98 4472 3629 6 MP stroke
gr

4820 3750 mt 
(1kB window) s
gs 3324 3512 2182 815 rc
c15
-289 0 0 99 289 0 0 -99 4472 3765 5 MP
PP
0 sg
0 0 -289 0 0 99 289 0 0 -99 4472 3765 6 MP stroke
gr

4820 3886 mt 
(2kB naive) s
gs 3324 3512 2182 815 rc
c16
-289 0 0 98 289 0 0 -98 4472 3900 5 MP
PP
0 sg
0 0 -289 0 0 98 289 0 0 -98 4472 3900 6 MP stroke
gr

4820 4021 mt 
(2kB pre-tag) s
gs 3324 3512 2182 815 rc
c17
-289 0 0 98 289 0 0 -98 4472 4036 5 MP
PP
0 sg
0 0 -289 0 0 98 289 0 0 -98 4472 4036 6 MP stroke
gr

4820 4157 mt 
(2kB pre+tag) s
gs 3324 3512 2182 815 rc
c18
-289 0 0 99 289 0 0 -99 4472 4172 5 MP
PP
0 sg
0 0 -289 0 0 99 289 0 0 -99 4472 4172 6 MP stroke
gr

4820 4293 mt 
(2kB window) s
gs 3324 3512 2182 815 rc
c19
-289 0 0 98 289 0 0 -98 4472 4307 5 MP
PP
0 sg
0 0 -289 0 0 98 289 0 0 -98 4472 4307 6 MP stroke
gr


end %%Color Dict

eplot
%%EndObject

epage
end

showpage

%%Trailer
%%BoundingBox:    27    33   466   411
%%Pages: 001
%%EOF
