11283211
11
1323211
11
1512321112
14096321
2
1256321221024642
1
1
1256321221024642
668049615
55061074
114446207
90839176
1340
23607031
23606903
8391673
0
02063
02063
00733
00000
55044511
55044147
2960018
364
364
0
0
00000
00000
00000
00000
