12563221
11
1323211
11
1512321112
14096321
2
1256321221024642
1
1
1256321221024642
8850747
4070193
4035476
0
34717
34205
9398
0
00085
00084
00023
00000
1988623
1988585
426633
38
8
6
0
00000
00000
00000
00000
