12563221
11
1323211
11
1512321112
14096321
2
1256321221024642
1
1
1256321221024642
8853881
1988631
4153152
4117768
13
35384
34872
9649
0
00085
00084
00023
00000
1905718
1905680
426633
38
8
6
0
00000
00000
00000
00000
