11283221
11
1323211
11
1512321112
14096321
2
1256321221024642
1
1
1256321221024642
30890849
7652873
7303516
0
349357
349101
119862
0
00457
00456
00157
00000
3739549
3717986
880566
21563
21531
17144
0
00058
00058
00046
00000
