11283241
11
1643211
11
1512321112
14096321
2
1256321221024642
1
1
1256321221024642
303286542
66414183
52554494
50889821
22269
1664673
1664161
404218
0
00317
00317
00077
00000
63154436
63003352
7168506
151084
151020
131455
0
00024
00024
00021
00000
