11283211
11
1643211
11
1512321112
14096321
2
1256321221024642
1
1
1256321221024642
31752025
3744066
7975639
7170037
7343
805602
805474
288783
0
01010
01010
00362
00000
3507530
3506948
873553
582
581
338
0
00002
00002
00001
00000
