1323241
11
1323211
11
1512321112
14096321
2
1256321221024642
1
1
1256321221024642
45206721
33597068
3453550
3453283
267
139
21
0
00001
00000
00000
00000
33597068
31168602
2428466
2428435
237242
0
00723
00723
00071
00000
