1323241
11
1323211
11
1512321112
14096321
2
1256321221024642
1
1
1256321221024642
592075439
293679002
80507665
79807642
700023
699895
203384
0
00087
00087
00025
00000
293679002
291387229
2291773
2291742
2129891
0
00078
00078
00073
00000
