1323241
11
1323211
11
1512321112
14096321
2
1256321221024642
1
1
1256321221024642
3643312
1209672
1808578
1754591
53987
53859
19583
0
00299
00298
00108
00000
1209672
1197474
12198
12167
9555
0
00101
00101
00079
00000
