1323241
11
1323211
11
1512321112
14096321
2
1256321221024642
1
1
1256321221024642
38171039
10292564
23794961
23709878
85083
84955
20644
0
00036
00036
00009
00000
10292564
10248493
44071
44040
34968
0
00043
00043
00034
00000
