1323241
11
1323211
11
1512321112
14096321
2
1256321221024642
1
1
1256321221024642
83825491
1215790
56215508
53739647
2475861
2475733
986217
0
00440
00440
00175
00000
1215790
1215707
83
54
22
0
00001
00000
00000
00000
