1323241
11
1163211
11
1512321112
14096321
2
1256321221024642
1
1
1256321221024642
15398343
17164
5142658
5138639
4019
3891
1198
0
00008
00008
00002
00000
16601
16550
51
35
25
0
00031
00021
00015
00000
