1323241
11
1163211
11
1512321112
14096321
2
1256321221024642
1
1
1256321221024642
97476015
35211846
9685816
8437868
1247948
1247820
340327
0
01288
01288
00351
00000
33341094
32665029
676065
676049
644262
0
00203
00203
00193
00000
