1323241
11
1163211
11
1512321112
14096321
2
1256321221024642
1
1
1256321221024642
153281788
26489203
62277637
61566407
711230
711102
530347
0
00114
00114
00085
00000
26479900
26479603
297
281
260
0
00000
00000
00000
00000
