12563221
11
1643211
11
1512321112
14096321
2
1256321221024642
1
1
1256321221024642
46982357
2467407
27289981
25868411
926
1421570
1421058
731262
0
00521
00521
00268
00000
2454020
2454018
1186741
2
2
2
0
00000
00000
00000
00000
