12563221
11
1643211
11
1512321112
14096321
2
1256321221024642
1
1
1256321221024642
629075821
54756031
113227614
108978807
1219
4248807
4248295
2006166
0
00375
00375
00177
00000
54740913
54740584
2964500
329
329
165
0
00000
00000
00000
00000
