11283241
11
1323211
11
1512321112
14096321
2
1256321221024642
1
1
1256321221024642
30406222
7624423
7497534
0
126889
126377
63600
0
00166
00166
00083
00000
3736388
3714825
881301
21563
21531
17144
0
00058
00058
00046
00000
