1323241
11
1163211
11
1512321112
14096321
2
1256321221024642
1
1
1256321221024642
14857818
30525
4925064
4921632
14
3432
3304
2134
0
00007
00007
00004
00000
29743
29704
5976
39
26
24
0
00013
00009
00008
00000
