1323241
11
1163211
11
1512321112
14096321
2
1256321221024642
1
1
1256321221024642
455954
43516
296374
293342
15
3032
2904
1650
0
00102
00098
00056
00000
42722
42678
5449
44
30
28
0
00010
00007
00007
00000
