1323241
11
1323211
11
1512321112
14096321
2
1256321221024642
1
1
1256321221024642
217703592
53444154
133352529
132500914
0
851615
851487
19924
0
00064
00064
00001
00000
53444154
53444139
65134
15
0
0
0
00000
00000
00000
00000
