1323241
11
1323211
11
1512321112
14096321
2
1256321221024642
1
1
1256321221024642
30788595
1384334
16259330
15695116
0
564214
564086
57239
0
00347
00347
00035
00000
1384334
1384283
219990
51
26
26
0
00000
00000
00000
00000
