1323241
11
1323211
11
1512321112
14096321
2
1256321221024642
1
1
1256321221024642
936633
191249
605164
600514
0
4650
4522
2375
0
00077
00075
00039
00000
191249
191202
5443
47
25
19
0
00002
00001
00001
00000
