11283211
11
1163211
11
1512321112
14096321
2
1256321221024642
1
1
1256321221024642
313721908
66662327
58596702
51370670
132445
7226032
7225904
1837766
0
01233
01233
00314
00000
59077330
58264626
7133215
812704
812688
751367
0
00138
00138
00127
00000
