11283241
11
1163211
11
1512321112
14096321
2
1256321221024642
1
1
1256321221024642
305477218
49025726
47626899
0
1398827
1398315
274181
0
00285
00285
00056
00000
66439134
63349794
7121483
3089340
3089324
2213405
0
00465
00465
00333
00000
