1323241
11
1323211
11
1512321112
14096321
2
1256321221024642
1
1
1256321221024642
13053496
3508759
2062286
2051970
10316
10188
2069
0
00050
00049
00010
00000
2984010
2983959
51
21
13
0
00000
00000
00000
00000
