1323241
11
1323211
11
1512321112
14096321
2
1256321221024642
1
1
1256321221024642
32940432
22781096
20119640
18922435
1197205
1197077
834675
0
00595
00595
00415
00000
4430170
4430116
54
26
17
0
00000
00000
00000
00000
