1323241
11
1323211
11
1512321112
14096321
2
1256321221024642
1
1
1256321221024642
13631089
5413409
4926622
4922998
3624
3496
1940
0
00007
00007
00004
00000
5410777
5410717
60
30
20
0
00000
00000
00000
00000
