1323241
11
1323211
11
1512321112
14096321
2
1256321221024642
1
1
1256321221024642
83825439
1215791
56216124
53740215
2475909
2475781
986218
0
00440
00440
00175
00000
1215203
1215176
27
2
0
0
00000
00000
00000
00000
