%!PS-Adobe-3.0 
%%Creator: MATLAB, The MathWorks, Inc. Version 8.2.0.701 (R2013b). Operating System: Linux 3.17.2-1-ARCH #1 SMP PREEMPT Thu Oct 30 20:49:39 CET 2014 x86_64.
%%Title: ./pics/orghitrate.eps
%%CreationDate: 11/18/2014  20:36:27
%%DocumentNeededFonts: Helvetica
%%DocumentProcessColors: Cyan Magenta Yellow Black
%%LanguageLevel: 2
%%Pages: (atend)
%%BoundingBox: (atend)
%%EndComments

%%BeginProlog
% MathWorks dictionary
/MathWorks 160 dict begin
% definition operators
/bdef {bind def} bind def
/ldef {load def} bind def
/xdef {exch def} bdef
/xstore {exch store} bdef
% operator abbreviations
/c  /clip ldef
/cc /concat ldef
/cp /closepath ldef
/gr /grestore ldef
/gs /gsave ldef
/mt /moveto ldef
/np /newpath ldef
/cm /currentmatrix ldef
/sm /setmatrix ldef
/rm /rmoveto ldef
/rl /rlineto ldef
/s {show newpath} bdef
/sc {setcmykcolor} bdef
/sr /setrgbcolor ldef
/sg /setgray ldef
/w /setlinewidth ldef
/j /setlinejoin ldef
/cap /setlinecap ldef
/rc {rectclip} bdef
/rf {rectfill} bdef
% page state control
/pgsv () def
/bpage {/pgsv save def} bdef
/epage {pgsv restore} bdef
/bplot /gsave ldef
/eplot {stroke grestore} bdef
% orientation switch
/portraitMode 0 def /landscapeMode 1 def /rotateMode 2 def
% coordinate system mappings
/dpi2point 0 def
% font control
/FontSize 0 def
/FMS {/FontSize xstore findfont [FontSize 0 0 FontSize neg 0 0]
  makefont setfont} bdef
/reencode {exch dup where {pop load} {pop StandardEncoding} ifelse
  exch dup 3 1 roll findfont dup length dict begin
  { 1 index /FID ne {def}{pop pop} ifelse } forall
  /Encoding exch def currentdict end definefont pop} bdef
/isroman {findfont /CharStrings get /Agrave known} bdef
/FMSR {3 1 roll 1 index dup isroman {reencode} {pop pop} ifelse
  exch FMS} bdef
/csm {1 dpi2point div -1 dpi2point div scale neg translate
 dup landscapeMode eq {pop -90 rotate}
  {rotateMode eq {90 rotate} if} ifelse} bdef
% line types: solid, dotted, dashed, dotdash
/SO { [] 0 setdash } bdef
/DO { [.5 dpi2point mul 4 dpi2point mul] 0 setdash } bdef
/DA { [6 dpi2point mul] 0 setdash } bdef
/DD { [.5 dpi2point mul 4 dpi2point mul 6 dpi2point mul 4
  dpi2point mul] 0 setdash } bdef
% macros for lines and objects
/L {lineto stroke} bdef
/MP {3 1 roll moveto 1 sub {rlineto} repeat} bdef
/AP {{rlineto} repeat} bdef
/PDlw -1 def
/W {/PDlw currentlinewidth def setlinewidth} def
/PP {closepath eofill} bdef
/DP {closepath stroke} bdef
/MR {4 -2 roll moveto dup  0 exch rlineto exch 0 rlineto
  neg 0 exch rlineto closepath} bdef
/FR {MR stroke} bdef
/PR {MR fill} bdef
/L1i {{currentfile picstr readhexstring pop} image} bdef
/tMatrix matrix def
/MakeOval {newpath tMatrix currentmatrix pop translate scale
0 0 1 0 360 arc tMatrix setmatrix} bdef
/FO {MakeOval stroke} bdef
/PO {MakeOval fill} bdef
/PD {currentlinewidth 2 div 0 360 arc fill
   PDlw -1 eq not {PDlw w /PDlw -1 def} if} def
/FA {newpath tMatrix currentmatrix pop translate scale
  0 0 1 5 -2 roll arc tMatrix setmatrix stroke} bdef
/PA {newpath tMatrix currentmatrix pop	translate 0 0 moveto scale
  0 0 1 5 -2 roll arc closepath tMatrix setmatrix fill} bdef
/FAn {newpath tMatrix currentmatrix pop translate scale
  0 0 1 5 -2 roll arcn tMatrix setmatrix stroke} bdef
/PAn {newpath tMatrix currentmatrix pop translate 0 0 moveto scale
  0 0 1 5 -2 roll arcn closepath tMatrix setmatrix fill} bdef
/vradius 0 def /hradius 0 def /lry 0 def
/lrx 0 def /uly 0 def /ulx 0 def /rad 0 def
/MRR {/vradius xdef /hradius xdef /lry xdef /lrx xdef /uly xdef
  /ulx xdef newpath tMatrix currentmatrix pop ulx hradius add uly
  vradius add translate hradius vradius scale 0 0 1 180 270 arc 
  tMatrix setmatrix lrx hradius sub uly vradius add translate
  hradius vradius scale 0 0 1 270 360 arc tMatrix setmatrix
  lrx hradius sub lry vradius sub translate hradius vradius scale
  0 0 1 0 90 arc tMatrix setmatrix ulx hradius add lry vradius sub
  translate hradius vradius scale 0 0 1 90 180 arc tMatrix setmatrix
  closepath} bdef
/FRR {MRR stroke } bdef
/PRR {MRR fill } bdef
/MlrRR {/lry xdef /lrx xdef /uly xdef /ulx xdef /rad lry uly sub 2 div def
  newpath tMatrix currentmatrix pop ulx rad add uly rad add translate
  rad rad scale 0 0 1 90 270 arc tMatrix setmatrix lrx rad sub lry rad
  sub translate rad rad scale 0 0 1 270 90 arc tMatrix setmatrix
  closepath} bdef
/FlrRR {MlrRR stroke } bdef
/PlrRR {MlrRR fill } bdef
/MtbRR {/lry xdef /lrx xdef /uly xdef /ulx xdef /rad lrx ulx sub 2 div def
  newpath tMatrix currentmatrix pop ulx rad add uly rad add translate
  rad rad scale 0 0 1 180 360 arc tMatrix setmatrix lrx rad sub lry rad
  sub translate rad rad scale 0 0 1 0 180 arc tMatrix setmatrix
  closepath} bdef
/FtbRR {MtbRR stroke } bdef
/PtbRR {MtbRR fill } bdef
/stri 6 array def /dtri 6 array def
/smat 6 array def /dmat 6 array def
/tmat1 6 array def /tmat2 6 array def /dif 3 array def
/asub {/ind2 exch def /ind1 exch def dup dup
  ind1 get exch ind2 get sub exch } bdef
/tri_to_matrix {
  2 0 asub 3 1 asub 4 0 asub 5 1 asub
  dup 0 get exch 1 get 7 -1 roll astore } bdef
/compute_transform {
  dmat dtri tri_to_matrix tmat1 invertmatrix 
  smat stri tri_to_matrix tmat2 concatmatrix } bdef
/ds {stri astore pop} bdef
/dt {dtri astore pop} bdef
/db {2 copy /cols xdef /rows xdef mul dup 3 mul string
  currentfile 
  3 index 0 eq {/ASCIIHexDecode filter}
  {/ASCII85Decode filter 3 index 2 eq {/RunLengthDecode filter} if }
  ifelse exch readstring pop
  dup 0 3 index getinterval /rbmap xdef
  dup 2 index dup getinterval /gbmap xdef
  1 index dup 2 mul exch getinterval /bbmap xdef pop pop}bdef
/it {gs np dtri aload pop moveto lineto lineto cp c
  cols rows 8 compute_transform 
  rbmap gbmap bbmap true 3 colorimage gr}bdef
/il {newpath moveto lineto stroke}bdef
currentdict end def
%%EndProlog

%%BeginSetup
MathWorks begin

0 cap

end
%%EndSetup

%%Page: 1 1
%%BeginPageSetup
%%PageBoundingBox:     7     1   277   117
MathWorks begin
bpage
%%EndPageSetup

%%BeginObject: obj1
bplot

/dpi2point 12 def
portraitMode 0000 1356 csm

   92   -48  3240  1386 rc
85 dict begin %Colortable dictionary
/c0 { 0.000000 0.000000 0.000000 sr} bdef
/c1 { 1.000000 1.000000 1.000000 sr} bdef
/c2 { 0.900000 0.000000 0.000000 sr} bdef
/c3 { 0.000000 0.820000 0.000000 sr} bdef
/c4 { 0.000000 0.000000 0.800000 sr} bdef
/c5 { 0.910000 0.820000 0.320000 sr} bdef
/c6 { 1.000000 0.260000 0.820000 sr} bdef
/c7 { 0.000000 0.820000 0.820000 sr} bdef
c0
1 j
1 sg
   0    0 3405 1364 rf
6 w
0 774 2638 0 0 -774 443 917 4 MP
PP
-2638 0 0 774 2638 0 0 -774 443 917 5 MP stroke
4 w
DO
SO
6 w
0 sg
 443  917 mt 3081  917 L
 443  143 mt 3081  143 L
 443  917 mt  443  143 L
3081  917 mt 3081  143 L
 443  917 mt 3081  917 L
 443  917 mt  443  143 L
 882  917 mt  882  890 L
 882  143 mt  882  169 L
%%IncludeResource: font Helvetica
/Helvetica /ISOLatin1Encoding 84 FMSR

 718 1029 mt 
(anagram) s
1322  917 mt 1322  890 L
1322  143 mt 1322  169 L
1257 1029 mt 
(cc1) s
1762  917 mt 1762  890 L
1762  143 mt 1762  169 L
1580 1029 mt 
(compress) s
2201  917 mt 2201  890 L
2201  143 mt 2201  169 L
2155 1029 mt 
(go) s
2641  917 mt 2641  890 L
2641  143 mt 2641  169 L
2571 1029 mt 
(perl) s
 443  917 mt  469  917 L
3081  917 mt 3054  917 L
 315  948 mt 
(50) s
 443  762 mt  469  762 L
3081  762 mt 3054  762 L
 315  793 mt 
(60) s
 443  607 mt  469  607 L
3081  607 mt 3054  607 L
 315  638 mt 
(70) s
 443  452 mt  469  452 L
3081  452 mt 3054  452 L
 315  483 mt 
(80) s
 443  297 mt  469  297 L
3081  297 mt 3054  297 L
 315  328 mt 
(90) s
 443  143 mt  469  143 L
3081  143 mt 3054  143 L
 268  174 mt 
(100) s
 443  917 mt 3081  917 L
 443  143 mt 3081  143 L
 443  917 mt  443  143 L
3081  917 mt 3081  143 L
gs 443 143 2639 775 rc
/c8 { 0.000000 0.000000 0.562500 sr} bdef
c8
0 1540 54 0 0 -1540 720 1691 4 MP
PP
0 sg
-54 0 0 1540 54 0 0 -1540 720 1691 5 MP stroke
c8
0 1525 55 0 0 -1525 1159 1691 4 MP
PP
0 sg
-55 0 0 1525 55 0 0 -1525 1159 1691 5 MP stroke
c8
0 1476 54 0 0 -1476 1599 1691 4 MP
PP
0 sg
-54 0 0 1476 54 0 0 -1476 1599 1691 5 MP stroke
c8
0 1534 54 0 0 -1534 2039 1691 4 MP
PP
0 sg
-54 0 0 1534 54 0 0 -1534 2039 1691 5 MP stroke
c8
0 1527 55 0 0 -1527 2478 1691 4 MP
PP
0 sg
-55 0 0 1527 55 0 0 -1527 2478 1691 5 MP stroke
/c9 { 0.000000 0.562500 1.000000 sr} bdef
c9
0 1534 55 0 0 -1534 787 1691 4 MP
PP
0 sg
-55 0 0 1534 55 0 0 -1534 787 1691 5 MP stroke
c9
0 1502 54 0 0 -1502 1227 1691 4 MP
PP
0 sg
-54 0 0 1502 54 0 0 -1502 1227 1691 5 MP stroke
c9
0 1456 54 0 0 -1456 1667 1691 4 MP
PP
0 sg
-54 0 0 1456 54 0 0 -1456 1667 1691 5 MP stroke
c9
0 1458 55 0 0 -1458 2106 1691 4 MP
PP
0 sg
-55 0 0 1458 55 0 0 -1458 2106 1691 5 MP stroke
c9
0 1486 54 0 0 -1486 2546 1691 4 MP
PP
0 sg
-54 0 0 1486 54 0 0 -1486 2546 1691 5 MP stroke
/c10 { 0.562500 1.000000 0.437500 sr} bdef
c10
0 1489 54 0 0 -1489 855 1691 4 MP
PP
0 sg
-54 0 0 1489 54 0 0 -1489 855 1691 5 MP stroke
c10
0 1434 54 0 0 -1434 1295 1691 4 MP
PP
0 sg
-54 0 0 1434 54 0 0 -1434 1295 1691 5 MP stroke
c10
0 1413 55 0 0 -1413 1734 1691 4 MP
PP
0 sg
-55 0 0 1413 55 0 0 -1413 1734 1691 5 MP stroke
c10
0 1287 54 0 0 -1287 2174 1691 4 MP
PP
0 sg
-54 0 0 1287 54 0 0 -1287 2174 1691 5 MP stroke
c10
0 1402 54 0 0 -1402 2614 1691 4 MP
PP
0 sg
-54 0 0 1402 54 0 0 -1402 2614 1691 5 MP stroke
/c11 { 1.000000 0.437500 0.000000 sr} bdef
c11
0 1535 54 0 0 -1535 923 1691 4 MP
PP
0 sg
-54 0 0 1535 54 0 0 -1535 923 1691 5 MP stroke
c11
0 1504 55 0 0 -1504 1362 1691 4 MP
PP
0 sg
-55 0 0 1504 55 0 0 -1504 1362 1691 5 MP stroke
c11
0 1460 54 0 0 -1460 1802 1691 4 MP
PP
0 sg
-54 0 0 1460 54 0 0 -1460 1802 1691 5 MP stroke
c11
0 1479 54 0 0 -1479 2242 1691 4 MP
PP
0 sg
-54 0 0 1479 54 0 0 -1479 2242 1691 5 MP stroke
c11
0 1492 55 0 0 -1492 2681 1691 4 MP
PP
0 sg
-55 0 0 1492 55 0 0 -1492 2681 1691 5 MP stroke
/c12 { 0.500000 0.000000 0.000000 sr} bdef
c12
0 1539 55 0 0 -1539 990 1691 4 MP
PP
0 sg
-55 0 0 1539 55 0 0 -1539 990 1691 5 MP stroke
c12
0 1521 54 0 0 -1521 1430 1691 4 MP
PP
0 sg
-54 0 0 1521 54 0 0 -1521 1430 1691 5 MP stroke
c12
0 1475 54 0 0 -1475 1870 1691 4 MP
PP
0 sg
-54 0 0 1475 54 0 0 -1475 1870 1691 5 MP stroke
c12
0 1509 55 0 0 -1509 2309 1691 4 MP
PP
0 sg
-55 0 0 1509 55 0 0 -1509 2309 1691 5 MP stroke
c12
0 1522 54 0 0 -1522 2749 1691 4 MP
PP
0 sg
-54 0 0 1522 54 0 0 -1522 2749 1691 5 MP stroke
gr

1548 1145 mt 
(Benchmark) s
 195  715 mt  -90 rotate
(Hit rate %) s
90 rotate
1372   78 mt 
(l1 data cache hit rate) s
%%IncludeResource: font Helvetica
/Helvetica /ISOLatin1Encoding 120 FMSR

 426  960 mt 
( ) s
3065  185 mt 
( ) s
1 sg
0 152 3040 0 0 -152 242 1336 4 MP
PP
-3040 0 0 152 3040 0 0 -152 242 1336 5 MP stroke
4 w
DO
SO
6 w
0 sg
 242 1336 mt 3282 1336 L
 242 1184 mt 3282 1184 L
 242 1336 mt  242 1184 L
3282 1336 mt 3282 1184 L
 242 1336 mt 3282 1336 L
 242 1336 mt  242 1184 L
 242 1336 mt 3282 1336 L
 242 1184 mt 3282 1184 L
 242 1336 mt  242 1184 L
3282 1336 mt 3282 1184 L
%%IncludeResource: font Helvetica
/Helvetica /ISOLatin1Encoding 84 FMSR

 567 1288 mt 
(16kB:4) s
gs 242 1184 3041 153 rc
c8
-250 0 0 89 250 0 0 -89 291 1302 5 MP
PP
0 sg
0 0 -250 0 0 89 250 0 0 -89 291 1302 6 MP stroke
gr

1188 1288 mt 
(8kB:2) s
gs 242 1184 3041 153 rc
c9
-250 0 0 89 250 0 0 -89 912 1302 5 MP
PP
0 sg
0 0 -250 0 0 89 250 0 0 -89 912 1302 6 MP stroke
gr

1760 1288 mt 
(4kB:1) s
gs 242 1184 3041 153 rc
c10
-249 0 0 89 249 0 0 -89 1485 1302 5 MP
PP
0 sg
0 0 -249 0 0 89 249 0 0 -89 1485 1302 6 MP stroke
gr

2333 1288 mt 
(16kB:2) s
gs 242 1184 3041 153 rc
c11
-250 0 0 89 250 0 0 -89 2057 1302 5 MP
PP
0 sg
0 0 -250 0 0 89 250 0 0 -89 2057 1302 6 MP stroke
gr

2954 1288 mt 
(16kB:1) s
gs 242 1184 3041 153 rc
c12
-249 0 0 89 249 0 0 -89 2678 1302 5 MP
PP
0 sg
0 0 -249 0 0 89 249 0 0 -89 2678 1302 6 MP stroke
gr


end %%Color Dict

eplot
%%EndObject

epage
end

showpage

%%Trailer
%%BoundingBox:     7     1   277   117
%%Pages: 001
%%EOF
