%!PS-Adobe-3.0 
%%Creator: MATLAB, The MathWorks, Inc. Version 8.2.0.701 (R2013b). Operating System: Linux 3.17.2-1-ARCH #1 SMP PREEMPT Thu Oct 30 20:49:39 CET 2014 x86_64.
%%Title: ./pics/orghitratereduce.eps
%%CreationDate: 11/26/2014  08:05:49
%%DocumentNeededFonts: Helvetica
%%DocumentProcessColors: Cyan Magenta Yellow Black
%%LanguageLevel: 2
%%Pages: (atend)
%%BoundingBox: (atend)
%%EndComments

%%BeginProlog
% MathWorks dictionary
/MathWorks 160 dict begin
% definition operators
/bdef {bind def} bind def
/ldef {load def} bind def
/xdef {exch def} bdef
/xstore {exch store} bdef
% operator abbreviations
/c  /clip ldef
/cc /concat ldef
/cp /closepath ldef
/gr /grestore ldef
/gs /gsave ldef
/mt /moveto ldef
/np /newpath ldef
/cm /currentmatrix ldef
/sm /setmatrix ldef
/rm /rmoveto ldef
/rl /rlineto ldef
/s {show newpath} bdef
/sc {setcmykcolor} bdef
/sr /setrgbcolor ldef
/sg /setgray ldef
/w /setlinewidth ldef
/j /setlinejoin ldef
/cap /setlinecap ldef
/rc {rectclip} bdef
/rf {rectfill} bdef
% page state control
/pgsv () def
/bpage {/pgsv save def} bdef
/epage {pgsv restore} bdef
/bplot /gsave ldef
/eplot {stroke grestore} bdef
% orientation switch
/portraitMode 0 def /landscapeMode 1 def /rotateMode 2 def
% coordinate system mappings
/dpi2point 0 def
% font control
/FontSize 0 def
/FMS {/FontSize xstore findfont [FontSize 0 0 FontSize neg 0 0]
  makefont setfont} bdef
/reencode {exch dup where {pop load} {pop StandardEncoding} ifelse
  exch dup 3 1 roll findfont dup length dict begin
  { 1 index /FID ne {def}{pop pop} ifelse } forall
  /Encoding exch def currentdict end definefont pop} bdef
/isroman {findfont /CharStrings get /Agrave known} bdef
/FMSR {3 1 roll 1 index dup isroman {reencode} {pop pop} ifelse
  exch FMS} bdef
/csm {1 dpi2point div -1 dpi2point div scale neg translate
 dup landscapeMode eq {pop -90 rotate}
  {rotateMode eq {90 rotate} if} ifelse} bdef
% line types: solid, dotted, dashed, dotdash
/SO { [] 0 setdash } bdef
/DO { [.5 dpi2point mul 4 dpi2point mul] 0 setdash } bdef
/DA { [6 dpi2point mul] 0 setdash } bdef
/DD { [.5 dpi2point mul 4 dpi2point mul 6 dpi2point mul 4
  dpi2point mul] 0 setdash } bdef
% macros for lines and objects
/L {lineto stroke} bdef
/MP {3 1 roll moveto 1 sub {rlineto} repeat} bdef
/AP {{rlineto} repeat} bdef
/PDlw -1 def
/W {/PDlw currentlinewidth def setlinewidth} def
/PP {closepath eofill} bdef
/DP {closepath stroke} bdef
/MR {4 -2 roll moveto dup  0 exch rlineto exch 0 rlineto
  neg 0 exch rlineto closepath} bdef
/FR {MR stroke} bdef
/PR {MR fill} bdef
/L1i {{currentfile picstr readhexstring pop} image} bdef
/tMatrix matrix def
/MakeOval {newpath tMatrix currentmatrix pop translate scale
0 0 1 0 360 arc tMatrix setmatrix} bdef
/FO {MakeOval stroke} bdef
/PO {MakeOval fill} bdef
/PD {currentlinewidth 2 div 0 360 arc fill
   PDlw -1 eq not {PDlw w /PDlw -1 def} if} def
/FA {newpath tMatrix currentmatrix pop translate scale
  0 0 1 5 -2 roll arc tMatrix setmatrix stroke} bdef
/PA {newpath tMatrix currentmatrix pop	translate 0 0 moveto scale
  0 0 1 5 -2 roll arc closepath tMatrix setmatrix fill} bdef
/FAn {newpath tMatrix currentmatrix pop translate scale
  0 0 1 5 -2 roll arcn tMatrix setmatrix stroke} bdef
/PAn {newpath tMatrix currentmatrix pop translate 0 0 moveto scale
  0 0 1 5 -2 roll arcn closepath tMatrix setmatrix fill} bdef
/vradius 0 def /hradius 0 def /lry 0 def
/lrx 0 def /uly 0 def /ulx 0 def /rad 0 def
/MRR {/vradius xdef /hradius xdef /lry xdef /lrx xdef /uly xdef
  /ulx xdef newpath tMatrix currentmatrix pop ulx hradius add uly
  vradius add translate hradius vradius scale 0 0 1 180 270 arc 
  tMatrix setmatrix lrx hradius sub uly vradius add translate
  hradius vradius scale 0 0 1 270 360 arc tMatrix setmatrix
  lrx hradius sub lry vradius sub translate hradius vradius scale
  0 0 1 0 90 arc tMatrix setmatrix ulx hradius add lry vradius sub
  translate hradius vradius scale 0 0 1 90 180 arc tMatrix setmatrix
  closepath} bdef
/FRR {MRR stroke } bdef
/PRR {MRR fill } bdef
/MlrRR {/lry xdef /lrx xdef /uly xdef /ulx xdef /rad lry uly sub 2 div def
  newpath tMatrix currentmatrix pop ulx rad add uly rad add translate
  rad rad scale 0 0 1 90 270 arc tMatrix setmatrix lrx rad sub lry rad
  sub translate rad rad scale 0 0 1 270 90 arc tMatrix setmatrix
  closepath} bdef
/FlrRR {MlrRR stroke } bdef
/PlrRR {MlrRR fill } bdef
/MtbRR {/lry xdef /lrx xdef /uly xdef /ulx xdef /rad lrx ulx sub 2 div def
  newpath tMatrix currentmatrix pop ulx rad add uly rad add translate
  rad rad scale 0 0 1 180 360 arc tMatrix setmatrix lrx rad sub lry rad
  sub translate rad rad scale 0 0 1 0 180 arc tMatrix setmatrix
  closepath} bdef
/FtbRR {MtbRR stroke } bdef
/PtbRR {MtbRR fill } bdef
/stri 6 array def /dtri 6 array def
/smat 6 array def /dmat 6 array def
/tmat1 6 array def /tmat2 6 array def /dif 3 array def
/asub {/ind2 exch def /ind1 exch def dup dup
  ind1 get exch ind2 get sub exch } bdef
/tri_to_matrix {
  2 0 asub 3 1 asub 4 0 asub 5 1 asub
  dup 0 get exch 1 get 7 -1 roll astore } bdef
/compute_transform {
  dmat dtri tri_to_matrix tmat1 invertmatrix 
  smat stri tri_to_matrix tmat2 concatmatrix } bdef
/ds {stri astore pop} bdef
/dt {dtri astore pop} bdef
/db {2 copy /cols xdef /rows xdef mul dup 3 mul string
  currentfile 
  3 index 0 eq {/ASCIIHexDecode filter}
  {/ASCII85Decode filter 3 index 2 eq {/RunLengthDecode filter} if }
  ifelse exch readstring pop
  dup 0 3 index getinterval /rbmap xdef
  dup 2 index dup getinterval /gbmap xdef
  1 index dup 2 mul exch getinterval /bbmap xdef pop pop}bdef
/it {gs np dtri aload pop moveto lineto lineto cp c
  cols rows 8 compute_transform 
  rbmap gbmap bbmap true 3 colorimage gr}bdef
/il {newpath moveto lineto stroke}bdef
currentdict end def
%%EndProlog

%%BeginSetup
MathWorks begin

0 cap

end
%%EndSetup

%%Page: 1 1
%%BeginPageSetup
%%PageBoundingBox:     0     0   264   117
MathWorks begin
bpage
%%EndPageSetup

%%BeginObject: obj1
bplot

/dpi2point 12 def
portraitMode 0000 1356 csm

    0   -48  3171  1411 rc
85 dict begin %Colortable dictionary
/c0 { 0.000000 0.000000 0.000000 sr} bdef
/c1 { 1.000000 1.000000 1.000000 sr} bdef
/c2 { 0.900000 0.000000 0.000000 sr} bdef
/c3 { 0.000000 0.820000 0.000000 sr} bdef
/c4 { 0.000000 0.000000 0.800000 sr} bdef
/c5 { 0.910000 0.820000 0.320000 sr} bdef
/c6 { 1.000000 0.260000 0.820000 sr} bdef
/c7 { 0.000000 0.820000 0.820000 sr} bdef
c0
1 j
1 sg
   0    0 3405 1364 rf
6 w
0 669 2638 0 0 -669 443 875 4 MP
PP
-2638 0 0 669 2638 0 0 -669 443 875 5 MP stroke
4 w
DO
SO
6 w
0 sg
 443  875 mt 3081  875 L
 443  206 mt 3081  206 L
 443  875 mt  443  206 L
3081  875 mt 3081  206 L
 443  875 mt 3081  875 L
 443  875 mt  443  206 L
 882  875 mt  882  848 L
 882  206 mt  882  232 L
%%IncludeResource: font Helvetica
/Helvetica /ISOLatin1Encoding 120 FMSR

 647 1020 mt 
(anagram) s
1322  875 mt 1322  848 L
1322  206 mt 1322  232 L
1229 1020 mt 
(cc1) s
1762  875 mt 1762  848 L
1762  206 mt 1762  232 L
1502 1020 mt 
(compress) s
2201  875 mt 2201  848 L
2201  206 mt 2201  232 L
2135 1020 mt 
(go) s
2641  875 mt 2641  848 L
2641  206 mt 2641  232 L
2541 1020 mt 
(perl) s
 443  875 mt  469  875 L
3081  875 mt 3054  875 L
 275  919 mt 
(80) s
 443  540 mt  469  540 L
3081  540 mt 3054  540 L
 275  584 mt 
(90) s
 443  206 mt  469  206 L
3081  206 mt 3054  206 L
 208  250 mt 
(100) s
 443  875 mt 3081  875 L
 443  206 mt 3081  206 L
 443  875 mt  443  206 L
3081  875 mt 3081  206 L
gs 443 206 2639 670 rc
/c8 { 0.000000 0.000000 0.562500 sr} bdef
c8
0 3284 79 0 0 -3284 745 3551 4 MP
PP
0 sg
-79 0 0 3284 79 0 0 -3284 745 3551 5 MP stroke
c8
0 3206 78 0 0 -3206 1185 3551 4 MP
PP
0 sg
-78 0 0 3206 78 0 0 -3206 1185 3551 5 MP stroke
c8
0 3112 78 0 0 -3112 1625 3551 4 MP
PP
0 sg
-78 0 0 3112 78 0 0 -3112 1625 3551 5 MP stroke
c8
0 3011 79 0 0 -3011 2064 3551 4 MP
PP
0 sg
-79 0 0 3011 79 0 0 -3011 2064 3551 5 MP stroke
c8
0 3160 78 0 0 -3160 2504 3551 4 MP
PP
0 sg
-78 0 0 3160 78 0 0 -3160 2504 3551 5 MP stroke
/c9 { 0.562500 1.000000 0.437500 sr} bdef
c9
0 3277 78 0 0 -3277 843 3551 4 MP
PP
0 sg
-78 0 0 3277 78 0 0 -3277 843 3551 5 MP stroke
c9
0 3177 78 0 0 -3177 1283 3551 4 MP
PP
0 sg
-78 0 0 3177 78 0 0 -3177 1283 3551 5 MP stroke
c9
0 3104 79 0 0 -3104 1722 3551 4 MP
PP
0 sg
-79 0 0 3104 79 0 0 -3104 1722 3551 5 MP stroke
c9
0 2931 78 0 0 -2931 2162 3551 4 MP
PP
0 sg
-78 0 0 2931 78 0 0 -2931 2162 3551 5 MP stroke
c9
0 3120 78 0 0 -3120 2602 3551 4 MP
PP
0 sg
-78 0 0 3120 78 0 0 -3120 2602 3551 5 MP stroke
/c10 { 0.500000 0.000000 0.000000 sr} bdef
c10
0 3217 78 0 0 -3217 941 3551 4 MP
PP
0 sg
-78 0 0 3217 78 0 0 -3217 941 3551 5 MP stroke
c10
0 3097 79 0 0 -3097 1380 3551 4 MP
PP
0 sg
-79 0 0 3097 79 0 0 -3097 1380 3551 5 MP stroke
c10
0 3053 78 0 0 -3053 1820 3551 4 MP
PP
0 sg
-78 0 0 3053 78 0 0 -3053 1820 3551 5 MP stroke
c10
0 2781 78 0 0 -2781 2260 3551 4 MP
PP
0 sg
-78 0 0 2781 78 0 0 -2781 2260 3551 5 MP stroke
c10
0 3027 79 0 0 -3027 2699 3551 4 MP
PP
0 sg
-79 0 0 3027 79 0 0 -3027 2699 3551 5 MP stroke
gr

1375  111 mt 
(4kB d1 hit rate) s
1457 1163 mt 
(Benchmark) s
 126  804 mt  -90 rotate
(Hit rate %) s
90 rotate
 426  918 mt 
( ) s
3065  248 mt 
( ) s
1 sg
0 194 2346 0 0 -194 589 1378 4 MP
PP
-2346 0 0 194 2346 0 0 -194 589 1378 5 MP stroke
4 w
DO
SO
6 w
0 sg
 589 1378 mt 2935 1378 L
 589 1184 mt 2935 1184 L
 589 1378 mt  589 1184 L
2935 1378 mt 2935 1184 L
 589 1378 mt 2935 1378 L
 589 1378 mt  589 1184 L
 589 1378 mt 2935 1378 L
 589 1184 mt 2935 1184 L
 589 1378 mt  589 1184 L
2935 1378 mt 2935 1184 L
1024 1321 mt 
(4 way) s
gs 589 1184 2347 179 rc
c8
-335 0 0 114 335 0 0 -114 655 1335 5 MP
PP
0 sg
0 0 -335 0 0 114 335 0 0 -114 655 1335 6 MP stroke
gr

1792 1321 mt 
(2 way) s
gs 589 1184 2347 179 rc
c9
-334 0 0 114 334 0 0 -114 1423 1335 5 MP
PP
0 sg
0 0 -334 0 0 114 334 0 0 -114 1423 1335 6 MP stroke
gr

2559 1321 mt 
(1 way) s
gs 589 1184 2347 179 rc
c10
-334 0 0 114 334 0 0 -114 2190 1335 5 MP
PP
0 sg
0 0 -334 0 0 114 334 0 0 -114 2190 1335 6 MP stroke
gr


end %%Color Dict

eplot
%%EndObject

epage
end

showpage

%%Trailer
%%BoundingBox:     0     0   264   117
%%Pages: 001
%%EOF
