%!PS-Adobe-3.0 
%%Creator: MATLAB, The MathWorks, Inc. Version 8.2.0.701 (R2013b). Operating System: Linux 3.17.2-1-ARCH #1 SMP PREEMPT Thu Oct 30 20:49:39 CET 2014 x86_64.
%%Title: ./pics/orgstackhitrate.eps
%%CreationDate: 11/26/2014  08:05:49
%%DocumentNeededFonts: Helvetica
%%DocumentProcessColors: Cyan Magenta Yellow Black
%%LanguageLevel: 2
%%Pages: (atend)
%%BoundingBox: (atend)
%%EndComments

%%BeginProlog
% MathWorks dictionary
/MathWorks 160 dict begin
% definition operators
/bdef {bind def} bind def
/ldef {load def} bind def
/xdef {exch def} bdef
/xstore {exch store} bdef
% operator abbreviations
/c  /clip ldef
/cc /concat ldef
/cp /closepath ldef
/gr /grestore ldef
/gs /gsave ldef
/mt /moveto ldef
/np /newpath ldef
/cm /currentmatrix ldef
/sm /setmatrix ldef
/rm /rmoveto ldef
/rl /rlineto ldef
/s {show newpath} bdef
/sc {setcmykcolor} bdef
/sr /setrgbcolor ldef
/sg /setgray ldef
/w /setlinewidth ldef
/j /setlinejoin ldef
/cap /setlinecap ldef
/rc {rectclip} bdef
/rf {rectfill} bdef
% page state control
/pgsv () def
/bpage {/pgsv save def} bdef
/epage {pgsv restore} bdef
/bplot /gsave ldef
/eplot {stroke grestore} bdef
% orientation switch
/portraitMode 0 def /landscapeMode 1 def /rotateMode 2 def
% coordinate system mappings
/dpi2point 0 def
% font control
/FontSize 0 def
/FMS {/FontSize xstore findfont [FontSize 0 0 FontSize neg 0 0]
  makefont setfont} bdef
/reencode {exch dup where {pop load} {pop StandardEncoding} ifelse
  exch dup 3 1 roll findfont dup length dict begin
  { 1 index /FID ne {def}{pop pop} ifelse } forall
  /Encoding exch def currentdict end definefont pop} bdef
/isroman {findfont /CharStrings get /Agrave known} bdef
/FMSR {3 1 roll 1 index dup isroman {reencode} {pop pop} ifelse
  exch FMS} bdef
/csm {1 dpi2point div -1 dpi2point div scale neg translate
 dup landscapeMode eq {pop -90 rotate}
  {rotateMode eq {90 rotate} if} ifelse} bdef
% line types: solid, dotted, dashed, dotdash
/SO { [] 0 setdash } bdef
/DO { [.5 dpi2point mul 4 dpi2point mul] 0 setdash } bdef
/DA { [6 dpi2point mul] 0 setdash } bdef
/DD { [.5 dpi2point mul 4 dpi2point mul 6 dpi2point mul 4
  dpi2point mul] 0 setdash } bdef
% macros for lines and objects
/L {lineto stroke} bdef
/MP {3 1 roll moveto 1 sub {rlineto} repeat} bdef
/AP {{rlineto} repeat} bdef
/PDlw -1 def
/W {/PDlw currentlinewidth def setlinewidth} def
/PP {closepath eofill} bdef
/DP {closepath stroke} bdef
/MR {4 -2 roll moveto dup  0 exch rlineto exch 0 rlineto
  neg 0 exch rlineto closepath} bdef
/FR {MR stroke} bdef
/PR {MR fill} bdef
/L1i {{currentfile picstr readhexstring pop} image} bdef
/tMatrix matrix def
/MakeOval {newpath tMatrix currentmatrix pop translate scale
0 0 1 0 360 arc tMatrix setmatrix} bdef
/FO {MakeOval stroke} bdef
/PO {MakeOval fill} bdef
/PD {currentlinewidth 2 div 0 360 arc fill
   PDlw -1 eq not {PDlw w /PDlw -1 def} if} def
/FA {newpath tMatrix currentmatrix pop translate scale
  0 0 1 5 -2 roll arc tMatrix setmatrix stroke} bdef
/PA {newpath tMatrix currentmatrix pop	translate 0 0 moveto scale
  0 0 1 5 -2 roll arc closepath tMatrix setmatrix fill} bdef
/FAn {newpath tMatrix currentmatrix pop translate scale
  0 0 1 5 -2 roll arcn tMatrix setmatrix stroke} bdef
/PAn {newpath tMatrix currentmatrix pop translate 0 0 moveto scale
  0 0 1 5 -2 roll arcn closepath tMatrix setmatrix fill} bdef
/vradius 0 def /hradius 0 def /lry 0 def
/lrx 0 def /uly 0 def /ulx 0 def /rad 0 def
/MRR {/vradius xdef /hradius xdef /lry xdef /lrx xdef /uly xdef
  /ulx xdef newpath tMatrix currentmatrix pop ulx hradius add uly
  vradius add translate hradius vradius scale 0 0 1 180 270 arc 
  tMatrix setmatrix lrx hradius sub uly vradius add translate
  hradius vradius scale 0 0 1 270 360 arc tMatrix setmatrix
  lrx hradius sub lry vradius sub translate hradius vradius scale
  0 0 1 0 90 arc tMatrix setmatrix ulx hradius add lry vradius sub
  translate hradius vradius scale 0 0 1 90 180 arc tMatrix setmatrix
  closepath} bdef
/FRR {MRR stroke } bdef
/PRR {MRR fill } bdef
/MlrRR {/lry xdef /lrx xdef /uly xdef /ulx xdef /rad lry uly sub 2 div def
  newpath tMatrix currentmatrix pop ulx rad add uly rad add translate
  rad rad scale 0 0 1 90 270 arc tMatrix setmatrix lrx rad sub lry rad
  sub translate rad rad scale 0 0 1 270 90 arc tMatrix setmatrix
  closepath} bdef
/FlrRR {MlrRR stroke } bdef
/PlrRR {MlrRR fill } bdef
/MtbRR {/lry xdef /lrx xdef /uly xdef /ulx xdef /rad lrx ulx sub 2 div def
  newpath tMatrix currentmatrix pop ulx rad add uly rad add translate
  rad rad scale 0 0 1 180 360 arc tMatrix setmatrix lrx rad sub lry rad
  sub translate rad rad scale 0 0 1 0 180 arc tMatrix setmatrix
  closepath} bdef
/FtbRR {MtbRR stroke } bdef
/PtbRR {MtbRR fill } bdef
/stri 6 array def /dtri 6 array def
/smat 6 array def /dmat 6 array def
/tmat1 6 array def /tmat2 6 array def /dif 3 array def
/asub {/ind2 exch def /ind1 exch def dup dup
  ind1 get exch ind2 get sub exch } bdef
/tri_to_matrix {
  2 0 asub 3 1 asub 4 0 asub 5 1 asub
  dup 0 get exch 1 get 7 -1 roll astore } bdef
/compute_transform {
  dmat dtri tri_to_matrix tmat1 invertmatrix 
  smat stri tri_to_matrix tmat2 concatmatrix } bdef
/ds {stri astore pop} bdef
/dt {dtri astore pop} bdef
/db {2 copy /cols xdef /rows xdef mul dup 3 mul string
  currentfile 
  3 index 0 eq {/ASCIIHexDecode filter}
  {/ASCII85Decode filter 3 index 2 eq {/RunLengthDecode filter} if }
  ifelse exch readstring pop
  dup 0 3 index getinterval /rbmap xdef
  dup 2 index dup getinterval /gbmap xdef
  1 index dup 2 mul exch getinterval /bbmap xdef pop pop}bdef
/it {gs np dtri aload pop moveto lineto lineto cp c
  cols rows 8 compute_transform 
  rbmap gbmap bbmap true 3 colorimage gr}bdef
/il {newpath moveto lineto stroke}bdef
currentdict end def
%%EndProlog

%%BeginSetup
MathWorks begin

0 cap

end
%%EndSetup

%%Page: 1 1
%%BeginPageSetup
%%PageBoundingBox:     0     0   260   117
MathWorks begin
bpage
%%EndPageSetup

%%BeginObject: obj1
bplot

/dpi2point 12 def
portraitMode 0000 1356 csm

    0   -48  3131  1411 rc
85 dict begin %Colortable dictionary
/c0 { 0.000000 0.000000 0.000000 sr} bdef
/c1 { 1.000000 1.000000 1.000000 sr} bdef
/c2 { 0.900000 0.000000 0.000000 sr} bdef
/c3 { 0.000000 0.820000 0.000000 sr} bdef
/c4 { 0.000000 0.000000 0.800000 sr} bdef
/c5 { 0.910000 0.820000 0.320000 sr} bdef
/c6 { 1.000000 0.260000 0.820000 sr} bdef
/c7 { 0.000000 0.820000 0.820000 sr} bdef
c0
1 j
1 sg
   0    0 3405 1364 rf
6 w
0 840 2638 0 0 -840 443 1046 4 MP
PP
-2638 0 0 840 2638 0 0 -840 443 1046 5 MP stroke
4 w
DO
SO
6 w
0 sg
 443 1046 mt 3081 1046 L
 443  206 mt 3081  206 L
 443 1046 mt  443  206 L
3081 1046 mt 3081  206 L
 443 1046 mt 3081 1046 L
 443 1046 mt  443  206 L
 882 1046 mt  882 1019 L
 882  206 mt  882  232 L
%%IncludeResource: font Helvetica
/Helvetica /ISOLatin1Encoding 120 FMSR

 647 1191 mt 
(anagram) s
1322 1046 mt 1322 1019 L
1322  206 mt 1322  232 L
1229 1191 mt 
(cc1) s
1762 1046 mt 1762 1019 L
1762  206 mt 1762  232 L
1502 1191 mt 
(compress) s
2201 1046 mt 2201 1019 L
2201  206 mt 2201  232 L
2135 1191 mt 
(go) s
2641 1046 mt 2641 1019 L
2641  206 mt 2641  232 L
2541 1191 mt 
(perl) s
 443 1046 mt  469 1046 L
3081 1046 mt 3054 1046 L
 275 1090 mt 
(80) s
 443  626 mt  469  626 L
3081  626 mt 3054  626 L
 275  670 mt 
(90) s
 443  206 mt  469  206 L
3081  206 mt 3054  206 L
 208  250 mt 
(100) s
 443 1046 mt 3081 1046 L
 443  206 mt 3081  206 L
 443 1046 mt  443  206 L
3081 1046 mt 3081  206 L
gs 443 206 2639 841 rc
/c8 { 0.000000 0.000000 0.562500 sr} bdef
c8
0 4185 79 0 0 -4185 745 4406 4 MP
PP
0 sg
-79 0 0 4185 79 0 0 -4185 745 4406 5 MP stroke
c8
0 4111 78 0 0 -4111 1185 4406 4 MP
PP
0 sg
-78 0 0 4111 78 0 0 -4111 1185 4406 5 MP stroke
c8
0 4199 78 0 0 -4199 1625 4406 4 MP
PP
0 sg
-78 0 0 4199 78 0 0 -4199 1625 4406 5 MP stroke
c8
0 4103 79 0 0 -4103 2064 4406 4 MP
PP
0 sg
-79 0 0 4103 79 0 0 -4103 2064 4406 5 MP stroke
c8
0 4122 78 0 0 -4122 2504 4406 4 MP
PP
0 sg
-78 0 0 4122 78 0 0 -4122 2504 4406 5 MP stroke
/c9 { 0.562500 1.000000 0.437500 sr} bdef
c9
0 4180 78 0 0 -4180 843 4406 4 MP
PP
0 sg
-78 0 0 4180 78 0 0 -4180 843 4406 5 MP stroke
c9
0 4088 78 0 0 -4088 1283 4406 4 MP
PP
0 sg
-78 0 0 4088 78 0 0 -4088 1283 4406 5 MP stroke
c9
0 4188 79 0 0 -4188 1722 4406 4 MP
PP
0 sg
-79 0 0 4188 79 0 0 -4188 1722 4406 5 MP stroke
c9
0 4035 78 0 0 -4035 2162 4406 4 MP
PP
0 sg
-78 0 0 4035 78 0 0 -4035 2162 4406 5 MP stroke
c9
0 4046 78 0 0 -4046 2602 4406 4 MP
PP
0 sg
-78 0 0 4046 78 0 0 -4046 2602 4406 5 MP stroke
/c10 { 0.500000 0.000000 0.000000 sr} bdef
c10
0 4097 78 0 0 -4097 941 4406 4 MP
PP
0 sg
-78 0 0 4097 78 0 0 -4097 941 4406 5 MP stroke
c10
0 4012 79 0 0 -4012 1380 4406 4 MP
PP
0 sg
-79 0 0 4012 79 0 0 -4012 1380 4406 5 MP stroke
c10
0 4087 78 0 0 -4087 1820 4406 4 MP
PP
0 sg
-78 0 0 4087 78 0 0 -4087 1820 4406 5 MP stroke
c10
0 3939 78 0 0 -3939 2260 4406 4 MP
PP
0 sg
-78 0 0 3939 78 0 0 -3939 2260 4406 5 MP stroke
c10
0 3896 79 0 0 -3896 2699 4406 4 MP
PP
0 sg
-79 0 0 3896 79 0 0 -3896 2699 4406 5 MP stroke
gr

1016  111 mt 
(4kB d1 stack access hit rate) s
 126  890 mt  -90 rotate
(Hit rate %) s
90 rotate
1457 1334 mt 
(Benchmark) s

end %%Color Dict

eplot
%%EndObject

epage
end

showpage

%%Trailer
%%BoundingBox:     0     0   260   117
%%Pages: 001
%%EOF
