11283211
11
1643211
11
1512321112
14096321
2
1256321221024642
1
1
1256321221024642
9301214
1988474
4156561
3991361
13
165200
165072
28152
0
00397
00397
00068
00000
1905911
1905873
426908
38
6
6
0
00000
00000
00000
00000
