12563221
11
1163211
11
1512321112
14096321
2
1256321221024642
1
1
1256321221024642
629269964
54756101
113835143
109570054
63500
4265089
4264577
2018645
0
00375
00375
00177
00000
54601651
54309237
2964948
292414
292398
184667
0
00054
00054
00034
00000
