12563221
11
1163211
11
1512321112
14096321
2
1256321221024642
1
1
1256321221024642
30558548
3740183
7900928
7710997
7208
189931
189419
81287
0
00240
00240
00103
00000
3563553
3517855
882649
45698
45682
39592
0
00128
00128
00111
00000
