15123211
11
1163211
11
1512321112
14096321
2
1256321221024642
1
1
1256321221024642
30961852
3737363
7647420
7298739
0
348681
348169
129414
0
00456
00455
00169
00000
3737363
3674224
880114
63139
63134
42354
0
00169
00169
00113
00000
