11283211
11
1643211
11
1512321112
14096321
2
1256321221024642
1
1
1256321221024642
668028562
114425341
90825835
0
23599506
23599378
8388415
0
02062
02062
00733
00000
55061023
55060445
2960145
578
531
531
0
00000
00000
00000
00000
