11283211
11
1323211
11
1512321112
14096321
2
1256321221024642
1
1
1256321221024642
218605327
133352541
132066121
0
1286420
1286292
221358
0
00096
00096
00017
00000
53444158
53444141
65134
17
0
0
0
00000
00000
00000
00000
