11283211
11
1323211
11
1512321112
14096321
2
1256321221024642
1
1
1256321221024642
15188245
4924481
4821436
0
103045
102917
2284
0
00209
00209
00005
00000
30523
30471
5976
52
29
21
0
00017
00010
00007
00000
