1323241
11
1323211
11
1512321112
14096321
2
1256321221024642
1
1
1256321221024642
18105783
3270
2402828
2402284
8
544
416
355
0
00002
00002
00001
00000
3116
3098
1474
18
0
0
0
00058
00000
00000
00000
