1323241
11
1323211
11
1512321112
14096321
2
1256321221024642
1
1
1256321221024642
9114190
1988628
5240395
5132359
140572
108036
107908
14549
0
00206
00206
00028
00000
820258
820223
284686
35
9
6
0
00000
00000
00000
00000
