1323241
11
1323211
11
1512321112
14096321
2
1256321221024642
1
1
1256321221024642
48602059
2467407
27313665
25240305
243
2073360
2073232
763336
0
00759
00759
00279
00000
2453934
2453909
1186981
25
7
7
0
00000
00000
00000
00000
