1323241
11
1323211
11
1512321112
14096321
2
1256321221024642
1
1
1256321221024642
650062208
54868037
121542114
106720971
423579
14821143
14821015
6043856
0
01219
01219
00497
00000
47173049
47172399
2533952
650
621
607
0
00000
00000
00000
00000
