1323241
11
1323211
11
1512321112
14096321
2
1256321221024642
1
1
1256321221024642
31395257
3745209
10126942
9542943
490787
583999
583871
185708
0
00577
00577
00183
00000
1321440
1319668
390904
1772
1749
1562
0
00013
00013
00012
00000
