15123211
11
1163211
11
1512321112
14096321
2
1256321221024642
1
1
1256321221024642
47584093
2467407
27274065
25595194
654
1678871
1678359
810523
0
00616
00615
00297
00000
2454446
2454320
1185393
126
126
2
0
00001
00001
00000
00000
