15123211
11
1163211
11
1512321112
14096321
2
1256321221024642
1
1
1256321221024642
30940775
3741142
8088072
7718039
15197
370033
369521
141231
0
00458
00457
00175
00000
3349708
3347677
877054
2031
2030
664
0
00006
00006
00002
00000
