1323211
11
1163211
11
1512321112
14096321
2
1256321221024642
1
1
1256321221024642
325957059
60821681
47242698
115486
13578983
13578951
3115126
0
02233
02233
00512
00000
55851379
55765697
6942306
85682
85682
23863
0
00015
00015
00004
00000
